\relax 
\@writefile{lof}{\contentsline {figure}{\numberline {1}{\ignorespaces El $2$-simplejo est\'andar y sus distintas caras.}}{1}}
\@writefile{lof}{\contentsline {figure}{\numberline {2}{\ignorespaces Algunas trayectorias horizontales de la diferencial cuadr\'atica $zdz^2$}}{1}}
\@writefile{lof}{\contentsline {figure}{\numberline {3}{\ignorespaces Algunas trayectorias horizontales de la diferencial cuadr\'atica $zdz^2$}}{1}}
