%% Creator: Matplotlib, PGF backend
%%
%% To include the figure in your LaTeX document, write
%%   \input{<filename>.pgf}
%%
%% Make sure the required packages are loaded in your preamble
%%   \usepackage{pgf}
%%
%% Figures using additional raster images can only be included by \input if
%% they are in the same directory as the main LaTeX file. For loading figures
%% from other directories you can use the `import` package
%%   \usepackage{import}
%% and then include the figures with
%%   \import{<path to file>}{<filename>.pgf}
%%
%% Matplotlib used the following preamble
%%   \usepackage{fontspec}
%%   \setmainfont{Bitstream Vera Serif}
%%   \setsansfont{Bitstream Vera Sans}
%%   \setmonofont{Bitstream Vera Sans Mono}
%%
\begin{tikzpicture}[scale=\escala]%
\pgfpathrectangle{\pgfpointorigin}{\pgfqpoint{4.000000in}{4.000000in}}%
\pgfusepath{use as bounding box}%
\begin{pgfscope}%
\pgfsetbuttcap%
\pgfsetroundjoin%
\definecolor{currentfill}{rgb}{1.000000,1.000000,1.000000}%
\pgfsetfillcolor{currentfill}%
\pgfsetlinewidth{0.000000pt}%
\definecolor{currentstroke}{rgb}{1.000000,1.000000,1.000000}%
\pgfsetstrokecolor{currentstroke}%
\pgfsetdash{}{0pt}%
\pgfpathmoveto{\pgfqpoint{0.000000in}{0.000000in}}%
\pgfpathlineto{\pgfqpoint{4.000000in}{0.000000in}}%
\pgfpathlineto{\pgfqpoint{4.000000in}{4.000000in}}%
\pgfpathlineto{\pgfqpoint{0.000000in}{4.000000in}}%
\pgfpathclose%
\pgfusepath{fill}%
\end{pgfscope}%
\begin{pgfscope}%
\pgfsetbuttcap%
\pgfsetroundjoin%
\definecolor{currentfill}{rgb}{1.000000,1.000000,1.000000}%
\pgfsetfillcolor{currentfill}%
\pgfsetlinewidth{0.000000pt}%
\definecolor{currentstroke}{rgb}{0.000000,0.000000,0.000000}%
\pgfsetstrokecolor{currentstroke}%
\pgfsetstrokeopacity{0.000000}%
\pgfsetdash{}{0pt}%
\pgfpathmoveto{\pgfqpoint{0.000000in}{0.000000in}}%
\pgfpathlineto{\pgfqpoint{4.000000in}{0.000000in}}%
\pgfpathlineto{\pgfqpoint{4.000000in}{4.000000in}}%
\pgfpathlineto{\pgfqpoint{0.000000in}{4.000000in}}%
\pgfpathclose%
\pgfusepath{fill}%
\end{pgfscope}%
\begin{pgfscope}%
\pgfpathrectangle{\pgfqpoint{0.000000in}{0.000000in}}{\pgfqpoint{4.000000in}{4.000000in}} %
\pgfusepath{clip}%
\pgfsetbuttcap%
\pgfsetroundjoin%
\pgfsetlinewidth{0.200750pt}%
\definecolor{currentstroke}{rgb}{0.000000,0.000000,0.000000}%
\pgfsetstrokecolor{currentstroke}%
\pgfsetdash{}{0pt}%
\pgfpathmoveto{\pgfqpoint{4.010000in}{1.715745in}}%
\pgfpathlineto{\pgfqpoint{3.690850in}{1.739165in}}%
\pgfpathlineto{\pgfqpoint{3.395669in}{1.762876in}}%
\pgfpathlineto{\pgfqpoint{3.139960in}{1.785526in}}%
\pgfpathlineto{\pgfqpoint{2.919395in}{1.807188in}}%
\pgfpathlineto{\pgfqpoint{2.730527in}{1.827891in}}%
\pgfpathlineto{\pgfqpoint{2.571730in}{1.847456in}}%
\pgfpathlineto{\pgfqpoint{2.442974in}{1.865392in}}%
\pgfpathlineto{\pgfqpoint{2.334337in}{1.882639in}}%
\pgfpathlineto{\pgfqpoint{2.245811in}{1.898844in}}%
\pgfpathlineto{\pgfqpoint{2.177350in}{1.913431in}}%
\pgfpathlineto{\pgfqpoint{2.119180in}{1.928116in}}%
\pgfpathlineto{\pgfqpoint{2.080899in}{1.939701in}}%
\pgfpathlineto{\pgfqpoint{2.052698in}{1.949921in}}%
\pgfpathlineto{\pgfqpoint{2.025415in}{1.962362in}}%
\pgfpathlineto{\pgfqpoint{2.008413in}{1.972861in}}%
\pgfpathlineto{\pgfqpoint{2.000745in}{1.979268in}}%
\pgfpathlineto{\pgfqpoint{1.994299in}{1.986887in}}%
\pgfpathlineto{\pgfqpoint{1.990395in}{1.996026in}}%
\pgfpathlineto{\pgfqpoint{1.990395in}{2.003974in}}%
\pgfpathlineto{\pgfqpoint{1.994299in}{2.013113in}}%
\pgfpathlineto{\pgfqpoint{2.000745in}{2.020732in}}%
\pgfpathlineto{\pgfqpoint{2.016724in}{2.032695in}}%
\pgfpathlineto{\pgfqpoint{2.034353in}{2.042121in}}%
\pgfpathlineto{\pgfqpoint{2.062028in}{2.053677in}}%
\pgfpathlineto{\pgfqpoint{2.099969in}{2.066324in}}%
\pgfpathlineto{\pgfqpoint{2.148185in}{2.079545in}}%
\pgfpathlineto{\pgfqpoint{2.206633in}{2.093088in}}%
\pgfpathlineto{\pgfqpoint{2.285103in}{2.108647in}}%
\pgfpathlineto{\pgfqpoint{2.373798in}{2.123904in}}%
\pgfpathlineto{\pgfqpoint{2.482558in}{2.140366in}}%
\pgfpathlineto{\pgfqpoint{2.611401in}{2.157659in}}%
\pgfpathlineto{\pgfqpoint{2.770267in}{2.176667in}}%
\pgfpathlineto{\pgfqpoint{2.959186in}{2.196896in}}%
\pgfpathlineto{\pgfqpoint{3.175134in}{2.217729in}}%
\pgfpathlineto{\pgfqpoint{3.424167in}{2.239515in}}%
\pgfpathlineto{\pgfqpoint{3.707994in}{2.262146in}}%
\pgfpathlineto{\pgfqpoint{4.010000in}{2.284255in}}%
\pgfpathlineto{\pgfqpoint{4.010000in}{2.284255in}}%
\pgfusepath{stroke}%
\end{pgfscope}%
\begin{pgfscope}%
\pgfpathrectangle{\pgfqpoint{0.000000in}{0.000000in}}{\pgfqpoint{4.000000in}{4.000000in}} %
\pgfusepath{clip}%
\pgfsetbuttcap%
\pgfsetroundjoin%
\pgfsetlinewidth{0.200750pt}%
\definecolor{currentstroke}{rgb}{0.000000,0.000000,0.000000}%
\pgfsetstrokecolor{currentstroke}%
\pgfsetdash{}{0pt}%
\pgfpathmoveto{\pgfqpoint{4.010000in}{1.019941in}}%
\pgfpathlineto{\pgfqpoint{3.814180in}{1.066228in}}%
\pgfpathlineto{\pgfqpoint{3.625474in}{1.113120in}}%
\pgfpathlineto{\pgfqpoint{3.454734in}{1.157793in}}%
\pgfpathlineto{\pgfqpoint{3.300251in}{1.200361in}}%
\pgfpathlineto{\pgfqpoint{3.147257in}{1.244881in}}%
\pgfpathlineto{\pgfqpoint{3.010214in}{1.287115in}}%
\pgfpathlineto{\pgfqpoint{2.887461in}{1.327193in}}%
\pgfpathlineto{\pgfqpoint{2.768089in}{1.368602in}}%
\pgfpathlineto{\pgfqpoint{2.664906in}{1.406719in}}%
\pgfpathlineto{\pgfqpoint{2.571851in}{1.443329in}}%
\pgfpathlineto{\pgfqpoint{2.488858in}{1.478142in}}%
\pgfpathlineto{\pgfqpoint{2.406768in}{1.515029in}}%
\pgfpathlineto{\pgfqpoint{2.334756in}{1.549869in}}%
\pgfpathlineto{\pgfqpoint{2.272686in}{1.582224in}}%
\pgfpathlineto{\pgfqpoint{2.211737in}{1.616643in}}%
\pgfpathlineto{\pgfqpoint{2.160638in}{1.648084in}}%
\pgfpathlineto{\pgfqpoint{2.119088in}{1.675891in}}%
\pgfpathlineto{\pgfqpoint{2.078730in}{1.705401in}}%
\pgfpathlineto{\pgfqpoint{2.039905in}{1.736897in}}%
\pgfpathlineto{\pgfqpoint{2.010265in}{1.763750in}}%
\pgfpathlineto{\pgfqpoint{1.982254in}{1.792296in}}%
\pgfpathlineto{\pgfqpoint{1.962590in}{1.814947in}}%
\pgfpathlineto{\pgfqpoint{1.944359in}{1.838765in}}%
\pgfpathlineto{\pgfqpoint{1.927884in}{1.863827in}}%
\pgfpathlineto{\pgfqpoint{1.913558in}{1.890174in}}%
\pgfpathlineto{\pgfqpoint{1.901840in}{1.917776in}}%
\pgfpathlineto{\pgfqpoint{1.895722in}{1.936812in}}%
\pgfpathlineto{\pgfqpoint{1.891123in}{1.956271in}}%
\pgfpathlineto{\pgfqpoint{1.888165in}{1.976045in}}%
\pgfpathlineto{\pgfqpoint{1.886932in}{2.004000in}}%
\pgfpathlineto{\pgfqpoint{1.888165in}{2.023955in}}%
\pgfpathlineto{\pgfqpoint{1.891123in}{2.043729in}}%
\pgfpathlineto{\pgfqpoint{1.895722in}{2.063188in}}%
\pgfpathlineto{\pgfqpoint{1.901840in}{2.082224in}}%
\pgfpathlineto{\pgfqpoint{1.913558in}{2.109826in}}%
\pgfpathlineto{\pgfqpoint{1.927884in}{2.136173in}}%
\pgfpathlineto{\pgfqpoint{1.944359in}{2.161235in}}%
\pgfpathlineto{\pgfqpoint{1.962590in}{2.185053in}}%
\pgfpathlineto{\pgfqpoint{1.982254in}{2.207704in}}%
\pgfpathlineto{\pgfqpoint{2.010265in}{2.236250in}}%
\pgfpathlineto{\pgfqpoint{2.039905in}{2.263103in}}%
\pgfpathlineto{\pgfqpoint{2.070830in}{2.288468in}}%
\pgfpathlineto{\pgfqpoint{2.110911in}{2.318351in}}%
\pgfpathlineto{\pgfqpoint{2.152245in}{2.346479in}}%
\pgfpathlineto{\pgfqpoint{2.203139in}{2.378249in}}%
\pgfpathlineto{\pgfqpoint{2.255145in}{2.408168in}}%
\pgfpathlineto{\pgfqpoint{2.316922in}{2.441078in}}%
\pgfpathlineto{\pgfqpoint{2.388671in}{2.476456in}}%
\pgfpathlineto{\pgfqpoint{2.461384in}{2.509810in}}%
\pgfpathlineto{\pgfqpoint{2.544098in}{2.545277in}}%
\pgfpathlineto{\pgfqpoint{2.636907in}{2.582508in}}%
\pgfpathlineto{\pgfqpoint{2.739873in}{2.621207in}}%
\pgfpathlineto{\pgfqpoint{2.846072in}{2.658745in}}%
\pgfpathlineto{\pgfqpoint{2.964005in}{2.698068in}}%
\pgfpathlineto{\pgfqpoint{3.095669in}{2.739504in}}%
\pgfpathlineto{\pgfqpoint{3.228618in}{2.779111in}}%
\pgfpathlineto{\pgfqpoint{3.375561in}{2.820666in}}%
\pgfpathlineto{\pgfqpoint{3.537969in}{2.864273in}}%
\pgfpathlineto{\pgfqpoint{3.717467in}{2.910042in}}%
\pgfpathlineto{\pgfqpoint{3.915853in}{2.958086in}}%
\pgfpathlineto{\pgfqpoint{4.010000in}{2.980059in}}%
\pgfpathlineto{\pgfqpoint{4.010000in}{2.980059in}}%
\pgfusepath{stroke}%
\end{pgfscope}%
\begin{pgfscope}%
\pgfpathrectangle{\pgfqpoint{0.000000in}{0.000000in}}{\pgfqpoint{4.000000in}{4.000000in}} %
\pgfusepath{clip}%
\pgfsetbuttcap%
\pgfsetroundjoin%
\pgfsetlinewidth{0.200750pt}%
\definecolor{currentstroke}{rgb}{0.000000,0.000000,0.000000}%
\pgfsetstrokecolor{currentstroke}%
\pgfsetdash{}{0pt}%
\pgfpathmoveto{\pgfqpoint{4.010000in}{0.612455in}}%
\pgfpathlineto{\pgfqpoint{3.832328in}{0.668974in}}%
\pgfpathlineto{\pgfqpoint{3.666735in}{0.723904in}}%
\pgfpathlineto{\pgfqpoint{3.513891in}{0.776792in}}%
\pgfpathlineto{\pgfqpoint{3.372818in}{0.827723in}}%
\pgfpathlineto{\pgfqpoint{3.227059in}{0.882782in}}%
\pgfpathlineto{\pgfqpoint{3.093874in}{0.935578in}}%
\pgfpathlineto{\pgfqpoint{2.972185in}{0.986218in}}%
\pgfpathlineto{\pgfqpoint{2.861004in}{1.034805in}}%
\pgfpathlineto{\pgfqpoint{2.759430in}{1.081437in}}%
\pgfpathlineto{\pgfqpoint{2.656840in}{1.131072in}}%
\pgfpathlineto{\pgfqpoint{2.564064in}{1.178538in}}%
\pgfpathlineto{\pgfqpoint{2.476153in}{1.226196in}}%
\pgfpathlineto{\pgfqpoint{2.398151in}{1.271087in}}%
\pgfpathlineto{\pgfqpoint{2.329878in}{1.312781in}}%
\pgfpathlineto{\pgfqpoint{2.262800in}{1.356371in}}%
\pgfpathlineto{\pgfqpoint{2.205276in}{1.396253in}}%
\pgfpathlineto{\pgfqpoint{2.149059in}{1.437957in}}%
\pgfpathlineto{\pgfqpoint{2.102113in}{1.475317in}}%
\pgfpathlineto{\pgfqpoint{2.056534in}{1.514331in}}%
\pgfpathlineto{\pgfqpoint{2.012589in}{1.555175in}}%
\pgfpathlineto{\pgfqpoint{1.977458in}{1.590749in}}%
\pgfpathlineto{\pgfqpoint{1.943940in}{1.627844in}}%
\pgfpathlineto{\pgfqpoint{1.912336in}{1.666582in}}%
\pgfpathlineto{\pgfqpoint{1.888675in}{1.698828in}}%
\pgfpathlineto{\pgfqpoint{1.866694in}{1.732241in}}%
\pgfpathlineto{\pgfqpoint{1.846649in}{1.766849in}}%
\pgfpathlineto{\pgfqpoint{1.828827in}{1.802651in}}%
\pgfpathlineto{\pgfqpoint{1.813540in}{1.839606in}}%
\pgfpathlineto{\pgfqpoint{1.803934in}{1.868021in}}%
\pgfpathlineto{\pgfqpoint{1.796068in}{1.896967in}}%
\pgfpathlineto{\pgfqpoint{1.790064in}{1.926355in}}%
\pgfpathlineto{\pgfqpoint{1.786024in}{1.956075in}}%
\pgfpathlineto{\pgfqpoint{1.784020in}{1.986002in}}%
\pgfpathlineto{\pgfqpoint{1.784020in}{2.013998in}}%
\pgfpathlineto{\pgfqpoint{1.786024in}{2.043925in}}%
\pgfpathlineto{\pgfqpoint{1.790064in}{2.073645in}}%
\pgfpathlineto{\pgfqpoint{1.796068in}{2.103033in}}%
\pgfpathlineto{\pgfqpoint{1.803934in}{2.131979in}}%
\pgfpathlineto{\pgfqpoint{1.813540in}{2.160394in}}%
\pgfpathlineto{\pgfqpoint{1.828827in}{2.197349in}}%
\pgfpathlineto{\pgfqpoint{1.846649in}{2.233151in}}%
\pgfpathlineto{\pgfqpoint{1.866694in}{2.267759in}}%
\pgfpathlineto{\pgfqpoint{1.888675in}{2.301172in}}%
\pgfpathlineto{\pgfqpoint{1.912336in}{2.333418in}}%
\pgfpathlineto{\pgfqpoint{1.943940in}{2.372156in}}%
\pgfpathlineto{\pgfqpoint{1.977458in}{2.409251in}}%
\pgfpathlineto{\pgfqpoint{2.012589in}{2.444825in}}%
\pgfpathlineto{\pgfqpoint{2.049088in}{2.478993in}}%
\pgfpathlineto{\pgfqpoint{2.094415in}{2.518300in}}%
\pgfpathlineto{\pgfqpoint{2.141149in}{2.555924in}}%
\pgfpathlineto{\pgfqpoint{2.197159in}{2.597905in}}%
\pgfpathlineto{\pgfqpoint{2.254511in}{2.638036in}}%
\pgfpathlineto{\pgfqpoint{2.321424in}{2.681878in}}%
\pgfpathlineto{\pgfqpoint{2.389559in}{2.723798in}}%
\pgfpathlineto{\pgfqpoint{2.467431in}{2.768914in}}%
\pgfpathlineto{\pgfqpoint{2.546388in}{2.812104in}}%
\pgfpathlineto{\pgfqpoint{2.637532in}{2.859265in}}%
\pgfpathlineto{\pgfqpoint{2.727563in}{2.903437in}}%
\pgfpathlineto{\pgfqpoint{2.826121in}{2.949439in}}%
\pgfpathlineto{\pgfqpoint{2.934003in}{2.997363in}}%
\pgfpathlineto{\pgfqpoint{3.052084in}{3.047308in}}%
\pgfpathlineto{\pgfqpoint{3.181322in}{3.099373in}}%
\pgfpathlineto{\pgfqpoint{3.322764in}{3.153666in}}%
\pgfpathlineto{\pgfqpoint{3.459659in}{3.203884in}}%
\pgfpathlineto{\pgfqpoint{3.607979in}{3.256028in}}%
\pgfpathlineto{\pgfqpoint{3.768671in}{3.310182in}}%
\pgfpathlineto{\pgfqpoint{3.942765in}{3.366433in}}%
\pgfpathlineto{\pgfqpoint{4.010000in}{3.387545in}}%
\pgfpathlineto{\pgfqpoint{4.010000in}{3.387545in}}%
\pgfusepath{stroke}%
\end{pgfscope}%
\begin{pgfscope}%
\pgfpathrectangle{\pgfqpoint{0.000000in}{0.000000in}}{\pgfqpoint{4.000000in}{4.000000in}} %
\pgfusepath{clip}%
\pgfsetbuttcap%
\pgfsetroundjoin%
\pgfsetlinewidth{0.200750pt}%
\definecolor{currentstroke}{rgb}{0.000000,0.000000,0.000000}%
\pgfsetstrokecolor{currentstroke}%
\pgfsetdash{}{0pt}%
\pgfpathmoveto{\pgfqpoint{4.010000in}{0.275156in}}%
\pgfpathlineto{\pgfqpoint{3.843651in}{0.337886in}}%
\pgfpathlineto{\pgfqpoint{3.687012in}{0.399201in}}%
\pgfpathlineto{\pgfqpoint{3.540991in}{0.458554in}}%
\pgfpathlineto{\pgfqpoint{3.404873in}{0.516020in}}%
\pgfpathlineto{\pgfqpoint{3.260579in}{0.579472in}}%
\pgfpathlineto{\pgfqpoint{3.127424in}{0.640651in}}%
\pgfpathlineto{\pgfqpoint{3.004556in}{0.699655in}}%
\pgfpathlineto{\pgfqpoint{2.891188in}{0.756578in}}%
\pgfpathlineto{\pgfqpoint{2.786593in}{0.811511in}}%
\pgfpathlineto{\pgfqpoint{2.690102in}{0.864543in}}%
\pgfpathlineto{\pgfqpoint{2.601097in}{0.915757in}}%
\pgfpathlineto{\pgfqpoint{2.509206in}{0.971304in}}%
\pgfpathlineto{\pgfqpoint{2.425326in}{1.024767in}}%
\pgfpathlineto{\pgfqpoint{2.348695in}{1.076310in}}%
\pgfpathlineto{\pgfqpoint{2.275363in}{1.128483in}}%
\pgfpathlineto{\pgfqpoint{2.211475in}{1.176628in}}%
\pgfpathlineto{\pgfqpoint{2.149005in}{1.226597in}}%
\pgfpathlineto{\pgfqpoint{2.095689in}{1.271952in}}%
\pgfpathlineto{\pgfqpoint{2.043827in}{1.318961in}}%
\pgfpathlineto{\pgfqpoint{1.993649in}{1.367763in}}%
\pgfpathlineto{\pgfqpoint{1.952188in}{1.411129in}}%
\pgfpathlineto{\pgfqpoint{1.912377in}{1.456014in}}%
\pgfpathlineto{\pgfqpoint{1.874463in}{1.502511in}}%
\pgfpathlineto{\pgfqpoint{1.844525in}{1.542553in}}%
\pgfpathlineto{\pgfqpoint{1.816300in}{1.583819in}}%
\pgfpathlineto{\pgfqpoint{1.790004in}{1.626341in}}%
\pgfpathlineto{\pgfqpoint{1.765884in}{1.670131in}}%
\pgfpathlineto{\pgfqpoint{1.748331in}{1.706070in}}%
\pgfpathlineto{\pgfqpoint{1.732485in}{1.742793in}}%
\pgfpathlineto{\pgfqpoint{1.718494in}{1.780262in}}%
\pgfpathlineto{\pgfqpoint{1.706505in}{1.818418in}}%
\pgfpathlineto{\pgfqpoint{1.696659in}{1.857182in}}%
\pgfpathlineto{\pgfqpoint{1.689084in}{1.896452in}}%
\pgfpathlineto{\pgfqpoint{1.683886in}{1.936106in}}%
\pgfpathlineto{\pgfqpoint{1.681140in}{1.976006in}}%
\pgfpathlineto{\pgfqpoint{1.680843in}{2.013999in}}%
\pgfpathlineto{\pgfqpoint{1.682967in}{2.053936in}}%
\pgfpathlineto{\pgfqpoint{1.687559in}{2.093665in}}%
\pgfpathlineto{\pgfqpoint{1.694548in}{2.133044in}}%
\pgfpathlineto{\pgfqpoint{1.703837in}{2.171945in}}%
\pgfpathlineto{\pgfqpoint{1.715303in}{2.210261in}}%
\pgfpathlineto{\pgfqpoint{1.728807in}{2.247907in}}%
\pgfpathlineto{\pgfqpoint{1.744204in}{2.284821in}}%
\pgfpathlineto{\pgfqpoint{1.761344in}{2.320959in}}%
\pgfpathlineto{\pgfqpoint{1.784998in}{2.365003in}}%
\pgfpathlineto{\pgfqpoint{1.810879in}{2.407778in}}%
\pgfpathlineto{\pgfqpoint{1.838737in}{2.449293in}}%
\pgfpathlineto{\pgfqpoint{1.868348in}{2.489577in}}%
\pgfpathlineto{\pgfqpoint{1.899515in}{2.528671in}}%
\pgfpathlineto{\pgfqpoint{1.938723in}{2.574083in}}%
\pgfpathlineto{\pgfqpoint{1.979659in}{2.617945in}}%
\pgfpathlineto{\pgfqpoint{2.022101in}{2.660352in}}%
\pgfpathlineto{\pgfqpoint{2.073272in}{2.708112in}}%
\pgfpathlineto{\pgfqpoint{2.125990in}{2.754159in}}%
\pgfpathlineto{\pgfqpoint{2.180050in}{2.798626in}}%
\pgfpathlineto{\pgfqpoint{2.243255in}{2.847663in}}%
\pgfpathlineto{\pgfqpoint{2.307778in}{2.894954in}}%
\pgfpathlineto{\pgfqpoint{2.381933in}{2.946392in}}%
\pgfpathlineto{\pgfqpoint{2.461662in}{2.998744in}}%
\pgfpathlineto{\pgfqpoint{2.549015in}{3.053120in}}%
\pgfpathlineto{\pgfqpoint{2.633634in}{3.103240in}}%
\pgfpathlineto{\pgfqpoint{2.725377in}{3.155127in}}%
\pgfpathlineto{\pgfqpoint{2.824831in}{3.208861in}}%
\pgfpathlineto{\pgfqpoint{2.932635in}{3.264530in}}%
\pgfpathlineto{\pgfqpoint{3.049478in}{3.322223in}}%
\pgfpathlineto{\pgfqpoint{3.176108in}{3.382031in}}%
\pgfpathlineto{\pgfqpoint{3.313336in}{3.444051in}}%
\pgfpathlineto{\pgfqpoint{3.442793in}{3.500211in}}%
\pgfpathlineto{\pgfqpoint{3.581671in}{3.558208in}}%
\pgfpathlineto{\pgfqpoint{3.730650in}{3.618114in}}%
\pgfpathlineto{\pgfqpoint{3.890461in}{3.680003in}}%
\pgfpathlineto{\pgfqpoint{4.010000in}{3.724844in}}%
\pgfpathlineto{\pgfqpoint{4.010000in}{3.724844in}}%
\pgfusepath{stroke}%
\end{pgfscope}%
\begin{pgfscope}%
\pgfpathrectangle{\pgfqpoint{0.000000in}{0.000000in}}{\pgfqpoint{4.000000in}{4.000000in}} %
\pgfusepath{clip}%
\pgfsetbuttcap%
\pgfsetroundjoin%
\pgfsetlinewidth{0.200750pt}%
\definecolor{currentstroke}{rgb}{0.000000,0.000000,0.000000}%
\pgfsetstrokecolor{currentstroke}%
\pgfsetdash{}{0pt}%
\pgfpathmoveto{\pgfqpoint{3.968680in}{-0.010000in}}%
\pgfpathlineto{\pgfqpoint{3.800083in}{0.062152in}}%
\pgfpathlineto{\pgfqpoint{3.636193in}{0.134970in}}%
\pgfpathlineto{\pgfqpoint{3.483430in}{0.205503in}}%
\pgfpathlineto{\pgfqpoint{3.341044in}{0.273838in}}%
\pgfpathlineto{\pgfqpoint{3.208338in}{0.340058in}}%
\pgfpathlineto{\pgfqpoint{3.084661in}{0.404244in}}%
\pgfpathlineto{\pgfqpoint{2.969408in}{0.466475in}}%
\pgfpathlineto{\pgfqpoint{2.862012in}{0.526828in}}%
\pgfpathlineto{\pgfqpoint{2.761948in}{0.585375in}}%
\pgfpathlineto{\pgfqpoint{2.668725in}{0.642190in}}%
\pgfpathlineto{\pgfqpoint{2.569977in}{0.705088in}}%
\pgfpathlineto{\pgfqpoint{2.478935in}{0.765914in}}%
\pgfpathlineto{\pgfqpoint{2.395018in}{0.824765in}}%
\pgfpathlineto{\pgfqpoint{2.317688in}{0.881735in}}%
\pgfpathlineto{\pgfqpoint{2.246449in}{0.936916in}}%
\pgfpathlineto{\pgfqpoint{2.180846in}{0.990396in}}%
\pgfpathlineto{\pgfqpoint{2.119844in}{1.042802in}}%
\pgfpathlineto{\pgfqpoint{2.060622in}{1.096582in}}%
\pgfpathlineto{\pgfqpoint{2.003052in}{1.152126in}}%
\pgfpathlineto{\pgfqpoint{1.954214in}{1.202271in}}%
\pgfpathlineto{\pgfqpoint{1.907000in}{1.253946in}}%
\pgfpathlineto{\pgfqpoint{1.861620in}{1.307239in}}%
\pgfpathlineto{\pgfqpoint{1.824365in}{1.354267in}}%
\pgfpathlineto{\pgfqpoint{1.788809in}{1.402594in}}%
\pgfpathlineto{\pgfqpoint{1.755150in}{1.452258in}}%
\pgfpathlineto{\pgfqpoint{1.723604in}{1.503290in}}%
\pgfpathlineto{\pgfqpoint{1.699105in}{1.546873in}}%
\pgfpathlineto{\pgfqpoint{1.676390in}{1.591412in}}%
\pgfpathlineto{\pgfqpoint{1.655620in}{1.636889in}}%
\pgfpathlineto{\pgfqpoint{1.636958in}{1.683270in}}%
\pgfpathlineto{\pgfqpoint{1.620570in}{1.730503in}}%
\pgfpathlineto{\pgfqpoint{1.606620in}{1.778512in}}%
\pgfpathlineto{\pgfqpoint{1.595259in}{1.827197in}}%
\pgfpathlineto{\pgfqpoint{1.588126in}{1.866553in}}%
\pgfpathlineto{\pgfqpoint{1.582794in}{1.906192in}}%
\pgfpathlineto{\pgfqpoint{1.579310in}{1.946037in}}%
\pgfpathlineto{\pgfqpoint{1.577702in}{1.986001in}}%
\pgfpathlineto{\pgfqpoint{1.578270in}{2.033991in}}%
\pgfpathlineto{\pgfqpoint{1.580819in}{2.073906in}}%
\pgfpathlineto{\pgfqpoint{1.585232in}{2.113658in}}%
\pgfpathlineto{\pgfqpoint{1.591470in}{2.153165in}}%
\pgfpathlineto{\pgfqpoint{1.599483in}{2.192351in}}%
\pgfpathlineto{\pgfqpoint{1.611898in}{2.240779in}}%
\pgfpathlineto{\pgfqpoint{1.626842in}{2.288488in}}%
\pgfpathlineto{\pgfqpoint{1.644159in}{2.335388in}}%
\pgfpathlineto{\pgfqpoint{1.663684in}{2.381413in}}%
\pgfpathlineto{\pgfqpoint{1.685252in}{2.426518in}}%
\pgfpathlineto{\pgfqpoint{1.708699in}{2.470675in}}%
\pgfpathlineto{\pgfqpoint{1.733870in}{2.513874in}}%
\pgfpathlineto{\pgfqpoint{1.766146in}{2.564448in}}%
\pgfpathlineto{\pgfqpoint{1.800461in}{2.613662in}}%
\pgfpathlineto{\pgfqpoint{1.836603in}{2.661551in}}%
\pgfpathlineto{\pgfqpoint{1.874385in}{2.708158in}}%
\pgfpathlineto{\pgfqpoint{1.920313in}{2.760979in}}%
\pgfpathlineto{\pgfqpoint{1.968011in}{2.812209in}}%
\pgfpathlineto{\pgfqpoint{2.017278in}{2.861932in}}%
\pgfpathlineto{\pgfqpoint{2.075281in}{2.917024in}}%
\pgfpathlineto{\pgfqpoint{2.134884in}{2.970382in}}%
\pgfpathlineto{\pgfqpoint{2.196742in}{3.022820in}}%
\pgfpathlineto{\pgfqpoint{2.263713in}{3.076716in}}%
\pgfpathlineto{\pgfqpoint{2.336431in}{3.132336in}}%
\pgfpathlineto{\pgfqpoint{2.415360in}{3.189768in}}%
\pgfpathlineto{\pgfqpoint{2.501006in}{3.249104in}}%
\pgfpathlineto{\pgfqpoint{2.593917in}{3.310439in}}%
\pgfpathlineto{\pgfqpoint{2.681641in}{3.365823in}}%
\pgfpathlineto{\pgfqpoint{2.775813in}{3.422881in}}%
\pgfpathlineto{\pgfqpoint{2.876893in}{3.481682in}}%
\pgfpathlineto{\pgfqpoint{2.985378in}{3.542298in}}%
\pgfpathlineto{\pgfqpoint{3.101800in}{3.604804in}}%
\pgfpathlineto{\pgfqpoint{3.226728in}{3.669276in}}%
\pgfpathlineto{\pgfqpoint{3.360776in}{3.735793in}}%
\pgfpathlineto{\pgfqpoint{3.504601in}{3.804436in}}%
\pgfpathlineto{\pgfqpoint{3.658907in}{3.875290in}}%
\pgfpathlineto{\pgfqpoint{3.800083in}{3.937848in}}%
\pgfpathlineto{\pgfqpoint{3.968680in}{4.010000in}}%
\pgfpathlineto{\pgfqpoint{3.968680in}{4.010000in}}%
\pgfusepath{stroke}%
\end{pgfscope}%
\begin{pgfscope}%
\pgfpathrectangle{\pgfqpoint{0.000000in}{0.000000in}}{\pgfqpoint{4.000000in}{4.000000in}} %
\pgfusepath{clip}%
\pgfsetbuttcap%
\pgfsetroundjoin%
\pgfsetlinewidth{0.200750pt}%
\definecolor{currentstroke}{rgb}{0.000000,0.000000,0.000000}%
\pgfsetstrokecolor{currentstroke}%
\pgfsetdash{}{0pt}%
\pgfpathmoveto{\pgfqpoint{3.396462in}{-0.010000in}}%
\pgfpathlineto{\pgfqpoint{3.279694in}{0.052007in}}%
\pgfpathlineto{\pgfqpoint{3.160271in}{0.117543in}}%
\pgfpathlineto{\pgfqpoint{3.029784in}{0.191866in}}%
\pgfpathlineto{\pgfqpoint{2.908209in}{0.263973in}}%
\pgfpathlineto{\pgfqpoint{2.794950in}{0.333953in}}%
\pgfpathlineto{\pgfqpoint{2.689453in}{0.401892in}}%
\pgfpathlineto{\pgfqpoint{2.591199in}{0.467873in}}%
\pgfpathlineto{\pgfqpoint{2.499707in}{0.531977in}}%
\pgfpathlineto{\pgfqpoint{2.414529in}{0.594282in}}%
\pgfpathlineto{\pgfqpoint{2.335247in}{0.654866in}}%
\pgfpathlineto{\pgfqpoint{2.261473in}{0.713801in}}%
\pgfpathlineto{\pgfqpoint{2.192845in}{0.771161in}}%
\pgfpathlineto{\pgfqpoint{2.120283in}{0.834875in}}%
\pgfpathlineto{\pgfqpoint{2.053539in}{0.896725in}}%
\pgfpathlineto{\pgfqpoint{1.992185in}{0.956809in}}%
\pgfpathlineto{\pgfqpoint{1.935743in}{1.015317in}}%
\pgfpathlineto{\pgfqpoint{1.881943in}{1.074522in}}%
\pgfpathlineto{\pgfqpoint{1.836448in}{1.127718in}}%
\pgfpathlineto{\pgfqpoint{1.792589in}{1.182270in}}%
\pgfpathlineto{\pgfqpoint{1.750541in}{1.238230in}}%
\pgfpathlineto{\pgfqpoint{1.710498in}{1.295641in}}%
\pgfpathlineto{\pgfqpoint{1.677936in}{1.346033in}}%
\pgfpathlineto{\pgfqpoint{1.647155in}{1.397532in}}%
\pgfpathlineto{\pgfqpoint{1.618314in}{1.450142in}}%
\pgfpathlineto{\pgfqpoint{1.591586in}{1.503855in}}%
\pgfpathlineto{\pgfqpoint{1.567149in}{1.558648in}}%
\pgfpathlineto{\pgfqpoint{1.548668in}{1.605104in}}%
\pgfpathlineto{\pgfqpoint{1.532014in}{1.652245in}}%
\pgfpathlineto{\pgfqpoint{1.517291in}{1.700024in}}%
\pgfpathlineto{\pgfqpoint{1.504601in}{1.748383in}}%
\pgfpathlineto{\pgfqpoint{1.494038in}{1.797251in}}%
\pgfpathlineto{\pgfqpoint{1.485685in}{1.846543in}}%
\pgfpathlineto{\pgfqpoint{1.479611in}{1.896169in}}%
\pgfpathlineto{\pgfqpoint{1.475869in}{1.946024in}}%
\pgfpathlineto{\pgfqpoint{1.474490in}{1.996000in}}%
\pgfpathlineto{\pgfqpoint{1.475403in}{2.043987in}}%
\pgfpathlineto{\pgfqpoint{1.478675in}{2.093875in}}%
\pgfpathlineto{\pgfqpoint{1.484286in}{2.143555in}}%
\pgfpathlineto{\pgfqpoint{1.492189in}{2.192922in}}%
\pgfpathlineto{\pgfqpoint{1.502316in}{2.241882in}}%
\pgfpathlineto{\pgfqpoint{1.514587in}{2.290348in}}%
\pgfpathlineto{\pgfqpoint{1.528911in}{2.338249in}}%
\pgfpathlineto{\pgfqpoint{1.545188in}{2.385522in}}%
\pgfpathlineto{\pgfqpoint{1.563312in}{2.432118in}}%
\pgfpathlineto{\pgfqpoint{1.587350in}{2.487087in}}%
\pgfpathlineto{\pgfqpoint{1.613708in}{2.540982in}}%
\pgfpathlineto{\pgfqpoint{1.642209in}{2.593777in}}%
\pgfpathlineto{\pgfqpoint{1.672678in}{2.645461in}}%
\pgfpathlineto{\pgfqpoint{1.704954in}{2.696037in}}%
\pgfpathlineto{\pgfqpoint{1.738887in}{2.745517in}}%
\pgfpathlineto{\pgfqpoint{1.780383in}{2.801887in}}%
\pgfpathlineto{\pgfqpoint{1.823743in}{2.856836in}}%
\pgfpathlineto{\pgfqpoint{1.868787in}{2.910415in}}%
\pgfpathlineto{\pgfqpoint{1.915355in}{2.962675in}}%
\pgfpathlineto{\pgfqpoint{1.970486in}{3.021094in}}%
\pgfpathlineto{\pgfqpoint{2.029921in}{3.080542in}}%
\pgfpathlineto{\pgfqpoint{2.094596in}{3.141718in}}%
\pgfpathlineto{\pgfqpoint{2.155808in}{3.196743in}}%
\pgfpathlineto{\pgfqpoint{2.221649in}{3.253234in}}%
\pgfpathlineto{\pgfqpoint{2.292440in}{3.311260in}}%
\pgfpathlineto{\pgfqpoint{2.368529in}{3.370893in}}%
\pgfpathlineto{\pgfqpoint{2.450288in}{3.432205in}}%
\pgfpathlineto{\pgfqpoint{2.538119in}{3.495272in}}%
\pgfpathlineto{\pgfqpoint{2.632452in}{3.560170in}}%
\pgfpathlineto{\pgfqpoint{2.733750in}{3.626981in}}%
\pgfpathlineto{\pgfqpoint{2.842508in}{3.695784in}}%
\pgfpathlineto{\pgfqpoint{2.959260in}{3.766665in}}%
\pgfpathlineto{\pgfqpoint{3.066129in}{3.829139in}}%
\pgfpathlineto{\pgfqpoint{3.179676in}{3.893260in}}%
\pgfpathlineto{\pgfqpoint{3.300309in}{3.959085in}}%
\pgfpathlineto{\pgfqpoint{3.396462in}{4.010000in}}%
\pgfpathlineto{\pgfqpoint{3.396462in}{4.010000in}}%
\pgfusepath{stroke}%
\end{pgfscope}%
\begin{pgfscope}%
\pgfpathrectangle{\pgfqpoint{0.000000in}{0.000000in}}{\pgfqpoint{4.000000in}{4.000000in}} %
\pgfusepath{clip}%
\pgfsetbuttcap%
\pgfsetroundjoin%
\pgfsetlinewidth{0.200750pt}%
\definecolor{currentstroke}{rgb}{0.000000,0.000000,0.000000}%
\pgfsetstrokecolor{currentstroke}%
\pgfsetdash{}{0pt}%
\pgfpathmoveto{\pgfqpoint{2.978117in}{-0.010000in}}%
\pgfpathlineto{\pgfqpoint{2.883685in}{0.049957in}}%
\pgfpathlineto{\pgfqpoint{2.778947in}{0.118696in}}%
\pgfpathlineto{\pgfqpoint{2.680410in}{0.185741in}}%
\pgfpathlineto{\pgfqpoint{2.587718in}{0.251154in}}%
\pgfpathlineto{\pgfqpoint{2.486522in}{0.325483in}}%
\pgfpathlineto{\pgfqpoint{2.392333in}{0.397761in}}%
\pgfpathlineto{\pgfqpoint{2.304689in}{0.468076in}}%
\pgfpathlineto{\pgfqpoint{2.223161in}{0.536514in}}%
\pgfpathlineto{\pgfqpoint{2.147350in}{0.603159in}}%
\pgfpathlineto{\pgfqpoint{2.076883in}{0.668093in}}%
\pgfpathlineto{\pgfqpoint{2.011415in}{0.731395in}}%
\pgfpathlineto{\pgfqpoint{1.950626in}{0.793143in}}%
\pgfpathlineto{\pgfqpoint{1.894216in}{0.853412in}}%
\pgfpathlineto{\pgfqpoint{1.841911in}{0.912276in}}%
\pgfpathlineto{\pgfqpoint{1.793452in}{0.969808in}}%
\pgfpathlineto{\pgfqpoint{1.742478in}{1.034018in}}%
\pgfpathlineto{\pgfqpoint{1.700623in}{1.090123in}}%
\pgfpathlineto{\pgfqpoint{1.660447in}{1.147442in}}%
\pgfpathlineto{\pgfqpoint{1.622101in}{1.206001in}}%
\pgfpathlineto{\pgfqpoint{1.585747in}{1.265817in}}%
\pgfpathlineto{\pgfqpoint{1.551562in}{1.326898in}}%
\pgfpathlineto{\pgfqpoint{1.524128in}{1.380255in}}%
\pgfpathlineto{\pgfqpoint{1.498547in}{1.434525in}}%
\pgfpathlineto{\pgfqpoint{1.474948in}{1.489685in}}%
\pgfpathlineto{\pgfqpoint{1.453459in}{1.545701in}}%
\pgfpathlineto{\pgfqpoint{1.434210in}{1.602525in}}%
\pgfpathlineto{\pgfqpoint{1.417327in}{1.660096in}}%
\pgfpathlineto{\pgfqpoint{1.402930in}{1.718339in}}%
\pgfpathlineto{\pgfqpoint{1.392910in}{1.767322in}}%
\pgfpathlineto{\pgfqpoint{1.384749in}{1.816648in}}%
\pgfpathlineto{\pgfqpoint{1.378494in}{1.866252in}}%
\pgfpathlineto{\pgfqpoint{1.374181in}{1.916062in}}%
\pgfpathlineto{\pgfqpoint{1.371839in}{1.966004in}}%
\pgfpathlineto{\pgfqpoint{1.371608in}{2.023999in}}%
\pgfpathlineto{\pgfqpoint{1.373555in}{2.073957in}}%
\pgfpathlineto{\pgfqpoint{1.377475in}{2.123800in}}%
\pgfpathlineto{\pgfqpoint{1.383344in}{2.173451in}}%
\pgfpathlineto{\pgfqpoint{1.391128in}{2.222839in}}%
\pgfpathlineto{\pgfqpoint{1.400780in}{2.271895in}}%
\pgfpathlineto{\pgfqpoint{1.414752in}{2.330241in}}%
\pgfpathlineto{\pgfqpoint{1.431228in}{2.387929in}}%
\pgfpathlineto{\pgfqpoint{1.450092in}{2.444883in}}%
\pgfpathlineto{\pgfqpoint{1.471216in}{2.501037in}}%
\pgfpathlineto{\pgfqpoint{1.494473in}{2.556342in}}%
\pgfpathlineto{\pgfqpoint{1.519732in}{2.610763in}}%
\pgfpathlineto{\pgfqpoint{1.546866in}{2.664274in}}%
\pgfpathlineto{\pgfqpoint{1.575751in}{2.716860in}}%
\pgfpathlineto{\pgfqpoint{1.611503in}{2.777037in}}%
\pgfpathlineto{\pgfqpoint{1.649297in}{2.835954in}}%
\pgfpathlineto{\pgfqpoint{1.688966in}{2.893625in}}%
\pgfpathlineto{\pgfqpoint{1.730356in}{2.950074in}}%
\pgfpathlineto{\pgfqpoint{1.773803in}{3.005926in}}%
\pgfpathlineto{\pgfqpoint{1.820686in}{3.062908in}}%
\pgfpathlineto{\pgfqpoint{1.871312in}{3.121193in}}%
\pgfpathlineto{\pgfqpoint{1.925930in}{3.180851in}}%
\pgfpathlineto{\pgfqpoint{1.984808in}{3.241956in}}%
\pgfpathlineto{\pgfqpoint{2.048233in}{3.304583in}}%
\pgfpathlineto{\pgfqpoint{2.116516in}{3.368807in}}%
\pgfpathlineto{\pgfqpoint{2.189993in}{3.434709in}}%
\pgfpathlineto{\pgfqpoint{2.269024in}{3.502369in}}%
\pgfpathlineto{\pgfqpoint{2.353995in}{3.571869in}}%
\pgfpathlineto{\pgfqpoint{2.445325in}{3.643295in}}%
\pgfpathlineto{\pgfqpoint{2.529005in}{3.706116in}}%
\pgfpathlineto{\pgfqpoint{2.617987in}{3.770472in}}%
\pgfpathlineto{\pgfqpoint{2.712589in}{3.836423in}}%
\pgfpathlineto{\pgfqpoint{2.813153in}{3.904026in}}%
\pgfpathlineto{\pgfqpoint{2.920040in}{3.973343in}}%
\pgfpathlineto{\pgfqpoint{2.978117in}{4.010000in}}%
\pgfpathlineto{\pgfqpoint{2.978117in}{4.010000in}}%
\pgfusepath{stroke}%
\end{pgfscope}%
\begin{pgfscope}%
\pgfpathrectangle{\pgfqpoint{0.000000in}{0.000000in}}{\pgfqpoint{4.000000in}{4.000000in}} %
\pgfusepath{clip}%
\pgfsetbuttcap%
\pgfsetroundjoin%
\pgfsetlinewidth{0.200750pt}%
\definecolor{currentstroke}{rgb}{0.000000,0.000000,0.000000}%
\pgfsetstrokecolor{currentstroke}%
\pgfsetdash{}{0pt}%
\pgfpathmoveto{\pgfqpoint{2.648618in}{-0.010000in}}%
\pgfpathlineto{\pgfqpoint{2.562996in}{0.053333in}}%
\pgfpathlineto{\pgfqpoint{2.468741in}{0.125530in}}%
\pgfpathlineto{\pgfqpoint{2.380127in}{0.196040in}}%
\pgfpathlineto{\pgfqpoint{2.296834in}{0.264926in}}%
\pgfpathlineto{\pgfqpoint{2.218562in}{0.332250in}}%
\pgfpathlineto{\pgfqpoint{2.145030in}{0.398074in}}%
\pgfpathlineto{\pgfqpoint{2.064880in}{0.473050in}}%
\pgfpathlineto{\pgfqpoint{1.990429in}{0.546155in}}%
\pgfpathlineto{\pgfqpoint{1.921311in}{0.617479in}}%
\pgfpathlineto{\pgfqpoint{1.857188in}{0.687109in}}%
\pgfpathlineto{\pgfqpoint{1.797745in}{0.755130in}}%
\pgfpathlineto{\pgfqpoint{1.742691in}{0.821627in}}%
\pgfpathlineto{\pgfqpoint{1.691756in}{0.886680in}}%
\pgfpathlineto{\pgfqpoint{1.644690in}{0.950369in}}%
\pgfpathlineto{\pgfqpoint{1.601263in}{1.012772in}}%
\pgfpathlineto{\pgfqpoint{1.561262in}{1.073965in}}%
\pgfpathlineto{\pgfqpoint{1.524418in}{1.134148in}}%
\pgfpathlineto{\pgfqpoint{1.489714in}{1.194936in}}%
\pgfpathlineto{\pgfqpoint{1.456985in}{1.256810in}}%
\pgfpathlineto{\pgfqpoint{1.426372in}{1.319757in}}%
\pgfpathlineto{\pgfqpoint{1.398023in}{1.383756in}}%
\pgfpathlineto{\pgfqpoint{1.375641in}{1.439422in}}%
\pgfpathlineto{\pgfqpoint{1.355130in}{1.495804in}}%
\pgfpathlineto{\pgfqpoint{1.336584in}{1.552863in}}%
\pgfpathlineto{\pgfqpoint{1.320096in}{1.610549in}}%
\pgfpathlineto{\pgfqpoint{1.305752in}{1.668806in}}%
\pgfpathlineto{\pgfqpoint{1.293634in}{1.727565in}}%
\pgfpathlineto{\pgfqpoint{1.283813in}{1.786752in}}%
\pgfpathlineto{\pgfqpoint{1.276349in}{1.846282in}}%
\pgfpathlineto{\pgfqpoint{1.271291in}{1.906064in}}%
\pgfpathlineto{\pgfqpoint{1.268671in}{1.966003in}}%
\pgfpathlineto{\pgfqpoint{1.268473in}{2.023999in}}%
\pgfpathlineto{\pgfqpoint{1.270684in}{2.083954in}}%
\pgfpathlineto{\pgfqpoint{1.275338in}{2.143769in}}%
\pgfpathlineto{\pgfqpoint{1.282404in}{2.203348in}}%
\pgfpathlineto{\pgfqpoint{1.291836in}{2.262598in}}%
\pgfpathlineto{\pgfqpoint{1.303576in}{2.321434in}}%
\pgfpathlineto{\pgfqpoint{1.317554in}{2.379779in}}%
\pgfpathlineto{\pgfqpoint{1.333691in}{2.437565in}}%
\pgfpathlineto{\pgfqpoint{1.351900in}{2.494732in}}%
\pgfpathlineto{\pgfqpoint{1.372090in}{2.551230in}}%
\pgfpathlineto{\pgfqpoint{1.394167in}{2.607018in}}%
\pgfpathlineto{\pgfqpoint{1.422180in}{2.671164in}}%
\pgfpathlineto{\pgfqpoint{1.452478in}{2.734263in}}%
\pgfpathlineto{\pgfqpoint{1.484915in}{2.796291in}}%
\pgfpathlineto{\pgfqpoint{1.519344in}{2.857235in}}%
\pgfpathlineto{\pgfqpoint{1.555816in}{2.917387in}}%
\pgfpathlineto{\pgfqpoint{1.595344in}{2.978414in}}%
\pgfpathlineto{\pgfqpoint{1.638269in}{3.040640in}}%
\pgfpathlineto{\pgfqpoint{1.684801in}{3.104140in}}%
\pgfpathlineto{\pgfqpoint{1.735168in}{3.168993in}}%
\pgfpathlineto{\pgfqpoint{1.789618in}{3.235279in}}%
\pgfpathlineto{\pgfqpoint{1.848416in}{3.303077in}}%
\pgfpathlineto{\pgfqpoint{1.911852in}{3.372473in}}%
\pgfpathlineto{\pgfqpoint{1.980236in}{3.443549in}}%
\pgfpathlineto{\pgfqpoint{2.053904in}{3.516394in}}%
\pgfpathlineto{\pgfqpoint{2.121526in}{3.580308in}}%
\pgfpathlineto{\pgfqpoint{2.193538in}{3.645645in}}%
\pgfpathlineto{\pgfqpoint{2.270199in}{3.712462in}}%
\pgfpathlineto{\pgfqpoint{2.351786in}{3.780821in}}%
\pgfpathlineto{\pgfqpoint{2.438593in}{3.850782in}}%
\pgfpathlineto{\pgfqpoint{2.530931in}{3.922410in}}%
\pgfpathlineto{\pgfqpoint{2.629133in}{3.995768in}}%
\pgfpathlineto{\pgfqpoint{2.648618in}{4.010000in}}%
\pgfpathlineto{\pgfqpoint{2.648618in}{4.010000in}}%
\pgfusepath{stroke}%
\end{pgfscope}%
\begin{pgfscope}%
\pgfpathrectangle{\pgfqpoint{0.000000in}{0.000000in}}{\pgfqpoint{4.000000in}{4.000000in}} %
\pgfusepath{clip}%
\pgfsetbuttcap%
\pgfsetroundjoin%
\pgfsetlinewidth{0.200750pt}%
\definecolor{currentstroke}{rgb}{0.000000,0.000000,0.000000}%
\pgfsetstrokecolor{currentstroke}%
\pgfsetdash{}{0pt}%
\pgfpathmoveto{\pgfqpoint{2.375044in}{-0.010000in}}%
\pgfpathlineto{\pgfqpoint{2.288384in}{0.063314in}}%
\pgfpathlineto{\pgfqpoint{2.202125in}{0.139165in}}%
\pgfpathlineto{\pgfqpoint{2.121103in}{0.213342in}}%
\pgfpathlineto{\pgfqpoint{2.045026in}{0.285910in}}%
\pgfpathlineto{\pgfqpoint{1.973621in}{0.356936in}}%
\pgfpathlineto{\pgfqpoint{1.906630in}{0.426483in}}%
\pgfpathlineto{\pgfqpoint{1.843813in}{0.494613in}}%
\pgfpathlineto{\pgfqpoint{1.784942in}{0.561389in}}%
\pgfpathlineto{\pgfqpoint{1.729806in}{0.626869in}}%
\pgfpathlineto{\pgfqpoint{1.669938in}{0.701705in}}%
\pgfpathlineto{\pgfqpoint{1.614590in}{0.774951in}}%
\pgfpathlineto{\pgfqpoint{1.563491in}{0.846696in}}%
\pgfpathlineto{\pgfqpoint{1.516391in}{0.917028in}}%
\pgfpathlineto{\pgfqpoint{1.473059in}{0.986033in}}%
\pgfpathlineto{\pgfqpoint{1.433283in}{1.053795in}}%
\pgfpathlineto{\pgfqpoint{1.396866in}{1.120399in}}%
\pgfpathlineto{\pgfqpoint{1.363632in}{1.185925in}}%
\pgfpathlineto{\pgfqpoint{1.333417in}{1.250454in}}%
\pgfpathlineto{\pgfqpoint{1.305780in}{1.314776in}}%
\pgfpathlineto{\pgfqpoint{1.280297in}{1.379969in}}%
\pgfpathlineto{\pgfqpoint{1.257081in}{1.446004in}}%
\pgfpathlineto{\pgfqpoint{1.236246in}{1.512827in}}%
\pgfpathlineto{\pgfqpoint{1.220367in}{1.570685in}}%
\pgfpathlineto{\pgfqpoint{1.206384in}{1.629030in}}%
\pgfpathlineto{\pgfqpoint{1.194359in}{1.687810in}}%
\pgfpathlineto{\pgfqpoint{1.184346in}{1.746965in}}%
\pgfpathlineto{\pgfqpoint{1.176393in}{1.806433in}}%
\pgfpathlineto{\pgfqpoint{1.170538in}{1.866143in}}%
\pgfpathlineto{\pgfqpoint{1.166811in}{1.926024in}}%
\pgfpathlineto{\pgfqpoint{1.165231in}{1.986000in}}%
\pgfpathlineto{\pgfqpoint{1.165752in}{2.043995in}}%
\pgfpathlineto{\pgfqpoint{1.168407in}{2.103933in}}%
\pgfpathlineto{\pgfqpoint{1.173201in}{2.163738in}}%
\pgfpathlineto{\pgfqpoint{1.180109in}{2.223336in}}%
\pgfpathlineto{\pgfqpoint{1.189098in}{2.282656in}}%
\pgfpathlineto{\pgfqpoint{1.200123in}{2.341631in}}%
\pgfpathlineto{\pgfqpoint{1.213135in}{2.400200in}}%
\pgfpathlineto{\pgfqpoint{1.228074in}{2.458308in}}%
\pgfpathlineto{\pgfqpoint{1.244877in}{2.515904in}}%
\pgfpathlineto{\pgfqpoint{1.266746in}{2.582397in}}%
\pgfpathlineto{\pgfqpoint{1.290948in}{2.648076in}}%
\pgfpathlineto{\pgfqpoint{1.317366in}{2.712896in}}%
\pgfpathlineto{\pgfqpoint{1.346006in}{2.777085in}}%
\pgfpathlineto{\pgfqpoint{1.377496in}{2.842031in}}%
\pgfpathlineto{\pgfqpoint{1.412074in}{2.908009in}}%
\pgfpathlineto{\pgfqpoint{1.449907in}{2.975099in}}%
\pgfpathlineto{\pgfqpoint{1.491183in}{3.043384in}}%
\pgfpathlineto{\pgfqpoint{1.536103in}{3.112947in}}%
\pgfpathlineto{\pgfqpoint{1.584887in}{3.183874in}}%
\pgfpathlineto{\pgfqpoint{1.637775in}{3.256251in}}%
\pgfpathlineto{\pgfqpoint{1.686570in}{3.319510in}}%
\pgfpathlineto{\pgfqpoint{1.738745in}{3.383957in}}%
\pgfpathlineto{\pgfqpoint{1.794489in}{3.449649in}}%
\pgfpathlineto{\pgfqpoint{1.854002in}{3.516646in}}%
\pgfpathlineto{\pgfqpoint{1.917499in}{3.585009in}}%
\pgfpathlineto{\pgfqpoint{1.985208in}{3.654797in}}%
\pgfpathlineto{\pgfqpoint{2.057374in}{3.726076in}}%
\pgfpathlineto{\pgfqpoint{2.134255in}{3.798908in}}%
\pgfpathlineto{\pgfqpoint{2.216130in}{3.873359in}}%
\pgfpathlineto{\pgfqpoint{2.303292in}{3.949496in}}%
\pgfpathlineto{\pgfqpoint{2.375044in}{4.010000in}}%
\pgfpathlineto{\pgfqpoint{2.375044in}{4.010000in}}%
\pgfusepath{stroke}%
\end{pgfscope}%
\begin{pgfscope}%
\pgfpathrectangle{\pgfqpoint{0.000000in}{0.000000in}}{\pgfqpoint{4.000000in}{4.000000in}} %
\pgfusepath{clip}%
\pgfsetbuttcap%
\pgfsetroundjoin%
\pgfsetlinewidth{0.200750pt}%
\definecolor{currentstroke}{rgb}{0.000000,0.000000,0.000000}%
\pgfsetstrokecolor{currentstroke}%
\pgfsetdash{}{0pt}%
\pgfpathmoveto{\pgfqpoint{2.138945in}{-0.010000in}}%
\pgfpathlineto{\pgfqpoint{2.057529in}{0.067465in}}%
\pgfpathlineto{\pgfqpoint{1.976877in}{0.147405in}}%
\pgfpathlineto{\pgfqpoint{1.901209in}{0.225677in}}%
\pgfpathlineto{\pgfqpoint{1.830251in}{0.302353in}}%
\pgfpathlineto{\pgfqpoint{1.763748in}{0.377500in}}%
\pgfpathlineto{\pgfqpoint{1.701461in}{0.451187in}}%
\pgfpathlineto{\pgfqpoint{1.643165in}{0.523479in}}%
\pgfpathlineto{\pgfqpoint{1.588651in}{0.594443in}}%
\pgfpathlineto{\pgfqpoint{1.537721in}{0.664142in}}%
\pgfpathlineto{\pgfqpoint{1.490194in}{0.732638in}}%
\pgfpathlineto{\pgfqpoint{1.445896in}{0.799994in}}%
\pgfpathlineto{\pgfqpoint{1.404670in}{0.866269in}}%
\pgfpathlineto{\pgfqpoint{1.366366in}{0.931525in}}%
\pgfpathlineto{\pgfqpoint{1.330847in}{0.995818in}}%
\pgfpathlineto{\pgfqpoint{1.292757in}{1.069689in}}%
\pgfpathlineto{\pgfqpoint{1.258097in}{1.142420in}}%
\pgfpathlineto{\pgfqpoint{1.226697in}{1.214100in}}%
\pgfpathlineto{\pgfqpoint{1.198403in}{1.284817in}}%
\pgfpathlineto{\pgfqpoint{1.173075in}{1.354659in}}%
\pgfpathlineto{\pgfqpoint{1.150591in}{1.423709in}}%
\pgfpathlineto{\pgfqpoint{1.130840in}{1.492054in}}%
\pgfpathlineto{\pgfqpoint{1.113671in}{1.560002in}}%
\pgfpathlineto{\pgfqpoint{1.098872in}{1.628416in}}%
\pgfpathlineto{\pgfqpoint{1.086490in}{1.697308in}}%
\pgfpathlineto{\pgfqpoint{1.076589in}{1.766601in}}%
\pgfpathlineto{\pgfqpoint{1.069220in}{1.836208in}}%
\pgfpathlineto{\pgfqpoint{1.064422in}{1.906039in}}%
\pgfpathlineto{\pgfqpoint{1.062377in}{1.966002in}}%
\pgfpathlineto{\pgfqpoint{1.062377in}{2.033998in}}%
\pgfpathlineto{\pgfqpoint{1.064422in}{2.093961in}}%
\pgfpathlineto{\pgfqpoint{1.068376in}{2.153828in}}%
\pgfpathlineto{\pgfqpoint{1.075380in}{2.223473in}}%
\pgfpathlineto{\pgfqpoint{1.084923in}{2.292815in}}%
\pgfpathlineto{\pgfqpoint{1.096954in}{2.361770in}}%
\pgfpathlineto{\pgfqpoint{1.111412in}{2.430257in}}%
\pgfpathlineto{\pgfqpoint{1.128235in}{2.498235in}}%
\pgfpathlineto{\pgfqpoint{1.147605in}{2.566486in}}%
\pgfpathlineto{\pgfqpoint{1.169692in}{2.635431in}}%
\pgfpathlineto{\pgfqpoint{1.194606in}{2.705154in}}%
\pgfpathlineto{\pgfqpoint{1.222468in}{2.775741in}}%
\pgfpathlineto{\pgfqpoint{1.253416in}{2.847278in}}%
\pgfpathlineto{\pgfqpoint{1.287600in}{2.919854in}}%
\pgfpathlineto{\pgfqpoint{1.319604in}{2.982955in}}%
\pgfpathlineto{\pgfqpoint{1.354224in}{3.046940in}}%
\pgfpathlineto{\pgfqpoint{1.391585in}{3.111868in}}%
\pgfpathlineto{\pgfqpoint{1.431821in}{3.177797in}}%
\pgfpathlineto{\pgfqpoint{1.475077in}{3.244786in}}%
\pgfpathlineto{\pgfqpoint{1.521510in}{3.312896in}}%
\pgfpathlineto{\pgfqpoint{1.571285in}{3.382187in}}%
\pgfpathlineto{\pgfqpoint{1.624584in}{3.452722in}}%
\pgfpathlineto{\pgfqpoint{1.681596in}{3.524564in}}%
\pgfpathlineto{\pgfqpoint{1.742529in}{3.597779in}}%
\pgfpathlineto{\pgfqpoint{1.807601in}{3.672432in}}%
\pgfpathlineto{\pgfqpoint{1.877046in}{3.748590in}}%
\pgfpathlineto{\pgfqpoint{1.951114in}{3.826322in}}%
\pgfpathlineto{\pgfqpoint{2.030074in}{3.905698in}}%
\pgfpathlineto{\pgfqpoint{2.114207in}{3.986789in}}%
\pgfpathlineto{\pgfqpoint{2.138945in}{4.010000in}}%
\pgfpathlineto{\pgfqpoint{2.138945in}{4.010000in}}%
\pgfusepath{stroke}%
\end{pgfscope}%
\begin{pgfscope}%
\pgfpathrectangle{\pgfqpoint{0.000000in}{0.000000in}}{\pgfqpoint{4.000000in}{4.000000in}} %
\pgfusepath{clip}%
\pgfsetbuttcap%
\pgfsetroundjoin%
\pgfsetlinewidth{0.200750pt}%
\definecolor{currentstroke}{rgb}{0.000000,0.000000,0.000000}%
\pgfsetstrokecolor{currentstroke}%
\pgfsetdash{}{0pt}%
\pgfpathmoveto{\pgfqpoint{1.929181in}{-0.010000in}}%
\pgfpathlineto{\pgfqpoint{1.848824in}{0.075034in}}%
\pgfpathlineto{\pgfqpoint{1.772668in}{0.159248in}}%
\pgfpathlineto{\pgfqpoint{1.701316in}{0.241805in}}%
\pgfpathlineto{\pgfqpoint{1.634512in}{0.322779in}}%
\pgfpathlineto{\pgfqpoint{1.572015in}{0.402244in}}%
\pgfpathlineto{\pgfqpoint{1.513600in}{0.480271in}}%
\pgfpathlineto{\pgfqpoint{1.459057in}{0.556930in}}%
\pgfpathlineto{\pgfqpoint{1.408190in}{0.632290in}}%
\pgfpathlineto{\pgfqpoint{1.360814in}{0.706419in}}%
\pgfpathlineto{\pgfqpoint{1.316760in}{0.779384in}}%
\pgfpathlineto{\pgfqpoint{1.275868in}{0.851250in}}%
\pgfpathlineto{\pgfqpoint{1.237993in}{0.922082in}}%
\pgfpathlineto{\pgfqpoint{1.202996in}{0.991944in}}%
\pgfpathlineto{\pgfqpoint{1.170753in}{1.060899in}}%
\pgfpathlineto{\pgfqpoint{1.141147in}{1.129008in}}%
\pgfpathlineto{\pgfqpoint{1.114071in}{1.196334in}}%
\pgfpathlineto{\pgfqpoint{1.089428in}{1.262936in}}%
\pgfpathlineto{\pgfqpoint{1.067129in}{1.328874in}}%
\pgfpathlineto{\pgfqpoint{1.047095in}{1.394209in}}%
\pgfpathlineto{\pgfqpoint{1.029252in}{1.458998in}}%
\pgfpathlineto{\pgfqpoint{1.013537in}{1.523301in}}%
\pgfpathlineto{\pgfqpoint{0.999892in}{1.587174in}}%
\pgfpathlineto{\pgfqpoint{0.986526in}{1.661228in}}%
\pgfpathlineto{\pgfqpoint{0.975847in}{1.734866in}}%
\pgfpathlineto{\pgfqpoint{0.967802in}{1.808179in}}%
\pgfpathlineto{\pgfqpoint{0.962352in}{1.881258in}}%
\pgfpathlineto{\pgfqpoint{0.959469in}{1.954191in}}%
\pgfpathlineto{\pgfqpoint{0.959115in}{2.024985in}}%
\pgfpathlineto{\pgfqpoint{0.961267in}{2.097893in}}%
\pgfpathlineto{\pgfqpoint{0.965981in}{2.170921in}}%
\pgfpathlineto{\pgfqpoint{0.973281in}{2.244158in}}%
\pgfpathlineto{\pgfqpoint{0.983203in}{2.317695in}}%
\pgfpathlineto{\pgfqpoint{0.993831in}{2.381032in}}%
\pgfpathlineto{\pgfqpoint{1.006459in}{2.444712in}}%
\pgfpathlineto{\pgfqpoint{1.021132in}{2.508793in}}%
\pgfpathlineto{\pgfqpoint{1.037904in}{2.573332in}}%
\pgfpathlineto{\pgfqpoint{1.056834in}{2.638386in}}%
\pgfpathlineto{\pgfqpoint{1.077991in}{2.704016in}}%
\pgfpathlineto{\pgfqpoint{1.101451in}{2.770279in}}%
\pgfpathlineto{\pgfqpoint{1.127299in}{2.837235in}}%
\pgfpathlineto{\pgfqpoint{1.155627in}{2.904945in}}%
\pgfpathlineto{\pgfqpoint{1.186538in}{2.973469in}}%
\pgfpathlineto{\pgfqpoint{1.220142in}{3.042870in}}%
\pgfpathlineto{\pgfqpoint{1.256562in}{3.113209in}}%
\pgfpathlineto{\pgfqpoint{1.295928in}{3.184550in}}%
\pgfpathlineto{\pgfqpoint{1.338382in}{3.256957in}}%
\pgfpathlineto{\pgfqpoint{1.384076in}{3.330496in}}%
\pgfpathlineto{\pgfqpoint{1.433176in}{3.405232in}}%
\pgfpathlineto{\pgfqpoint{1.485858in}{3.481233in}}%
\pgfpathlineto{\pgfqpoint{1.542311in}{3.558567in}}%
\pgfpathlineto{\pgfqpoint{1.602740in}{3.637304in}}%
\pgfpathlineto{\pgfqpoint{1.667361in}{3.717515in}}%
\pgfpathlineto{\pgfqpoint{1.736408in}{3.799271in}}%
\pgfpathlineto{\pgfqpoint{1.810129in}{3.882647in}}%
\pgfpathlineto{\pgfqpoint{1.888789in}{3.967718in}}%
\pgfpathlineto{\pgfqpoint{1.929181in}{4.010000in}}%
\pgfpathlineto{\pgfqpoint{1.929181in}{4.010000in}}%
\pgfusepath{stroke}%
\end{pgfscope}%
\begin{pgfscope}%
\pgfpathrectangle{\pgfqpoint{0.000000in}{0.000000in}}{\pgfqpoint{4.000000in}{4.000000in}} %
\pgfusepath{clip}%
\pgfsetbuttcap%
\pgfsetroundjoin%
\pgfsetlinewidth{0.200750pt}%
\definecolor{currentstroke}{rgb}{0.000000,0.000000,0.000000}%
\pgfsetstrokecolor{currentstroke}%
\pgfsetdash{}{0pt}%
\pgfpathmoveto{\pgfqpoint{1.738651in}{-0.010000in}}%
\pgfpathlineto{\pgfqpoint{1.684450in}{0.052675in}}%
\pgfpathlineto{\pgfqpoint{1.610216in}{0.141953in}}%
\pgfpathlineto{\pgfqpoint{1.540758in}{0.229559in}}%
\pgfpathlineto{\pgfqpoint{1.475826in}{0.315572in}}%
\pgfpathlineto{\pgfqpoint{1.415187in}{0.400068in}}%
\pgfpathlineto{\pgfqpoint{1.358623in}{0.483125in}}%
\pgfpathlineto{\pgfqpoint{1.305929in}{0.564816in}}%
\pgfpathlineto{\pgfqpoint{1.256915in}{0.645215in}}%
\pgfpathlineto{\pgfqpoint{1.211406in}{0.724395in}}%
\pgfpathlineto{\pgfqpoint{1.169238in}{0.802427in}}%
\pgfpathlineto{\pgfqpoint{1.130258in}{0.879381in}}%
\pgfpathlineto{\pgfqpoint{1.094326in}{0.955326in}}%
\pgfpathlineto{\pgfqpoint{1.061313in}{1.030331in}}%
\pgfpathlineto{\pgfqpoint{1.031100in}{1.104464in}}%
\pgfpathlineto{\pgfqpoint{1.003578in}{1.177790in}}%
\pgfpathlineto{\pgfqpoint{0.978648in}{1.250376in}}%
\pgfpathlineto{\pgfqpoint{0.956220in}{1.322288in}}%
\pgfpathlineto{\pgfqpoint{0.936214in}{1.393589in}}%
\pgfpathlineto{\pgfqpoint{0.918557in}{1.464345in}}%
\pgfpathlineto{\pgfqpoint{0.903186in}{1.534618in}}%
\pgfpathlineto{\pgfqpoint{0.890045in}{1.604473in}}%
\pgfpathlineto{\pgfqpoint{0.879088in}{1.673972in}}%
\pgfpathlineto{\pgfqpoint{0.870274in}{1.743177in}}%
\pgfpathlineto{\pgfqpoint{0.863573in}{1.812151in}}%
\pgfpathlineto{\pgfqpoint{0.858959in}{1.880956in}}%
\pgfpathlineto{\pgfqpoint{0.856416in}{1.949654in}}%
\pgfpathlineto{\pgfqpoint{0.855918in}{2.016018in}}%
\pgfpathlineto{\pgfqpoint{0.857429in}{2.084686in}}%
\pgfpathlineto{\pgfqpoint{0.861006in}{2.153429in}}%
\pgfpathlineto{\pgfqpoint{0.866661in}{2.222311in}}%
\pgfpathlineto{\pgfqpoint{0.874415in}{2.291393in}}%
\pgfpathlineto{\pgfqpoint{0.884296in}{2.360737in}}%
\pgfpathlineto{\pgfqpoint{0.896340in}{2.430406in}}%
\pgfpathlineto{\pgfqpoint{0.910589in}{2.500462in}}%
\pgfpathlineto{\pgfqpoint{0.927096in}{2.570969in}}%
\pgfpathlineto{\pgfqpoint{0.945919in}{2.641989in}}%
\pgfpathlineto{\pgfqpoint{0.967127in}{2.713588in}}%
\pgfpathlineto{\pgfqpoint{0.990795in}{2.785829in}}%
\pgfpathlineto{\pgfqpoint{1.017009in}{2.858777in}}%
\pgfpathlineto{\pgfqpoint{1.045864in}{2.932497in}}%
\pgfpathlineto{\pgfqpoint{1.077462in}{3.007058in}}%
\pgfpathlineto{\pgfqpoint{1.111919in}{3.082524in}}%
\pgfpathlineto{\pgfqpoint{1.149358in}{3.158965in}}%
\pgfpathlineto{\pgfqpoint{1.189914in}{3.236450in}}%
\pgfpathlineto{\pgfqpoint{1.233733in}{3.315047in}}%
\pgfpathlineto{\pgfqpoint{1.280973in}{3.394827in}}%
\pgfpathlineto{\pgfqpoint{1.331804in}{3.475864in}}%
\pgfpathlineto{\pgfqpoint{1.386409in}{3.558228in}}%
\pgfpathlineto{\pgfqpoint{1.444984in}{3.641995in}}%
\pgfpathlineto{\pgfqpoint{1.507741in}{3.727240in}}%
\pgfpathlineto{\pgfqpoint{1.574906in}{3.814040in}}%
\pgfpathlineto{\pgfqpoint{1.634417in}{3.887616in}}%
\pgfpathlineto{\pgfqpoint{1.697305in}{3.962373in}}%
\pgfpathlineto{\pgfqpoint{1.738651in}{4.010000in}}%
\pgfpathlineto{\pgfqpoint{1.738651in}{4.010000in}}%
\pgfusepath{stroke}%
\end{pgfscope}%
\begin{pgfscope}%
\pgfpathrectangle{\pgfqpoint{0.000000in}{0.000000in}}{\pgfqpoint{4.000000in}{4.000000in}} %
\pgfusepath{clip}%
\pgfsetbuttcap%
\pgfsetroundjoin%
\pgfsetlinewidth{0.200750pt}%
\definecolor{currentstroke}{rgb}{0.000000,0.000000,0.000000}%
\pgfsetstrokecolor{currentstroke}%
\pgfsetdash{}{0pt}%
\pgfpathmoveto{\pgfqpoint{1.562568in}{-0.010000in}}%
\pgfpathlineto{\pgfqpoint{1.511643in}{0.054223in}}%
\pgfpathlineto{\pgfqpoint{1.451653in}{0.132714in}}%
\pgfpathlineto{\pgfqpoint{1.394969in}{0.210037in}}%
\pgfpathlineto{\pgfqpoint{1.341451in}{0.286242in}}%
\pgfpathlineto{\pgfqpoint{1.290964in}{0.361376in}}%
\pgfpathlineto{\pgfqpoint{1.234205in}{0.450188in}}%
\pgfpathlineto{\pgfqpoint{1.181424in}{0.537606in}}%
\pgfpathlineto{\pgfqpoint{1.132433in}{0.623707in}}%
\pgfpathlineto{\pgfqpoint{1.087055in}{0.708569in}}%
\pgfpathlineto{\pgfqpoint{1.045126in}{0.792270in}}%
\pgfpathlineto{\pgfqpoint{1.006496in}{0.874883in}}%
\pgfpathlineto{\pgfqpoint{0.971026in}{0.956483in}}%
\pgfpathlineto{\pgfqpoint{0.938587in}{1.037144in}}%
\pgfpathlineto{\pgfqpoint{0.909063in}{1.116939in}}%
\pgfpathlineto{\pgfqpoint{0.882348in}{1.195939in}}%
\pgfpathlineto{\pgfqpoint{0.858345in}{1.274215in}}%
\pgfpathlineto{\pgfqpoint{0.836967in}{1.351837in}}%
\pgfpathlineto{\pgfqpoint{0.818139in}{1.428877in}}%
\pgfpathlineto{\pgfqpoint{0.801792in}{1.505402in}}%
\pgfpathlineto{\pgfqpoint{0.787868in}{1.581482in}}%
\pgfpathlineto{\pgfqpoint{0.776315in}{1.657186in}}%
\pgfpathlineto{\pgfqpoint{0.767093in}{1.732581in}}%
\pgfpathlineto{\pgfqpoint{0.760168in}{1.807735in}}%
\pgfpathlineto{\pgfqpoint{0.755516in}{1.882716in}}%
\pgfpathlineto{\pgfqpoint{0.753119in}{1.957592in}}%
\pgfpathlineto{\pgfqpoint{0.752938in}{2.029935in}}%
\pgfpathlineto{\pgfqpoint{0.754960in}{2.104799in}}%
\pgfpathlineto{\pgfqpoint{0.759236in}{2.179758in}}%
\pgfpathlineto{\pgfqpoint{0.765780in}{2.254879in}}%
\pgfpathlineto{\pgfqpoint{0.774617in}{2.330229in}}%
\pgfpathlineto{\pgfqpoint{0.785779in}{2.405876in}}%
\pgfpathlineto{\pgfqpoint{0.799305in}{2.481889in}}%
\pgfpathlineto{\pgfqpoint{0.815244in}{2.558335in}}%
\pgfpathlineto{\pgfqpoint{0.833654in}{2.635284in}}%
\pgfpathlineto{\pgfqpoint{0.854601in}{2.712805in}}%
\pgfpathlineto{\pgfqpoint{0.878161in}{2.790967in}}%
\pgfpathlineto{\pgfqpoint{0.904418in}{2.869841in}}%
\pgfpathlineto{\pgfqpoint{0.933467in}{2.949498in}}%
\pgfpathlineto{\pgfqpoint{0.965412in}{3.030010in}}%
\pgfpathlineto{\pgfqpoint{1.000369in}{3.111449in}}%
\pgfpathlineto{\pgfqpoint{1.038463in}{3.193888in}}%
\pgfpathlineto{\pgfqpoint{1.079832in}{3.277402in}}%
\pgfpathlineto{\pgfqpoint{1.124624in}{3.362065in}}%
\pgfpathlineto{\pgfqpoint{1.173001in}{3.447955in}}%
\pgfpathlineto{\pgfqpoint{1.225137in}{3.535148in}}%
\pgfpathlineto{\pgfqpoint{1.271590in}{3.608860in}}%
\pgfpathlineto{\pgfqpoint{1.320900in}{3.683579in}}%
\pgfpathlineto{\pgfqpoint{1.373190in}{3.759349in}}%
\pgfpathlineto{\pgfqpoint{1.428591in}{3.836220in}}%
\pgfpathlineto{\pgfqpoint{1.487241in}{3.914237in}}%
\pgfpathlineto{\pgfqpoint{1.549287in}{3.993452in}}%
\pgfpathlineto{\pgfqpoint{1.562568in}{4.010000in}}%
\pgfpathlineto{\pgfqpoint{1.562568in}{4.010000in}}%
\pgfusepath{stroke}%
\end{pgfscope}%
\begin{pgfscope}%
\pgfpathrectangle{\pgfqpoint{0.000000in}{0.000000in}}{\pgfqpoint{4.000000in}{4.000000in}} %
\pgfusepath{clip}%
\pgfsetbuttcap%
\pgfsetroundjoin%
\pgfsetlinewidth{0.200750pt}%
\definecolor{currentstroke}{rgb}{0.000000,0.000000,0.000000}%
\pgfsetstrokecolor{currentstroke}%
\pgfsetdash{}{0pt}%
\pgfpathmoveto{\pgfqpoint{1.397642in}{-0.010000in}}%
\pgfpathlineto{\pgfqpoint{1.344954in}{0.062070in}}%
\pgfpathlineto{\pgfqpoint{1.287012in}{0.144574in}}%
\pgfpathlineto{\pgfqpoint{1.232352in}{0.225918in}}%
\pgfpathlineto{\pgfqpoint{1.180837in}{0.306154in}}%
\pgfpathlineto{\pgfqpoint{1.132339in}{0.385331in}}%
\pgfpathlineto{\pgfqpoint{1.086735in}{0.463499in}}%
\pgfpathlineto{\pgfqpoint{1.043913in}{0.540706in}}%
\pgfpathlineto{\pgfqpoint{1.003766in}{0.617001in}}%
\pgfpathlineto{\pgfqpoint{0.966192in}{0.692432in}}%
\pgfpathlineto{\pgfqpoint{0.924368in}{0.781875in}}%
\pgfpathlineto{\pgfqpoint{0.885965in}{0.870221in}}%
\pgfpathlineto{\pgfqpoint{0.850845in}{0.957550in}}%
\pgfpathlineto{\pgfqpoint{0.818880in}{1.043940in}}%
\pgfpathlineto{\pgfqpoint{0.789957in}{1.129471in}}%
\pgfpathlineto{\pgfqpoint{0.763969in}{1.214217in}}%
\pgfpathlineto{\pgfqpoint{0.740825in}{1.298257in}}%
\pgfpathlineto{\pgfqpoint{0.720440in}{1.381665in}}%
\pgfpathlineto{\pgfqpoint{0.702742in}{1.464516in}}%
\pgfpathlineto{\pgfqpoint{0.687666in}{1.546886in}}%
\pgfpathlineto{\pgfqpoint{0.675159in}{1.628847in}}%
\pgfpathlineto{\pgfqpoint{0.665174in}{1.710474in}}%
\pgfpathlineto{\pgfqpoint{0.657677in}{1.791841in}}%
\pgfpathlineto{\pgfqpoint{0.652640in}{1.873021in}}%
\pgfpathlineto{\pgfqpoint{0.650045in}{1.954086in}}%
\pgfpathlineto{\pgfqpoint{0.649850in}{2.032409in}}%
\pgfpathlineto{\pgfqpoint{0.652039in}{2.113462in}}%
\pgfpathlineto{\pgfqpoint{0.656667in}{2.194618in}}%
\pgfpathlineto{\pgfqpoint{0.663753in}{2.275948in}}%
\pgfpathlineto{\pgfqpoint{0.673321in}{2.357527in}}%
\pgfpathlineto{\pgfqpoint{0.685405in}{2.439428in}}%
\pgfpathlineto{\pgfqpoint{0.700049in}{2.521724in}}%
\pgfpathlineto{\pgfqpoint{0.717306in}{2.604490in}}%
\pgfpathlineto{\pgfqpoint{0.737238in}{2.687800in}}%
\pgfpathlineto{\pgfqpoint{0.759917in}{2.771729in}}%
\pgfpathlineto{\pgfqpoint{0.785424in}{2.856352in}}%
\pgfpathlineto{\pgfqpoint{0.813852in}{2.941747in}}%
\pgfpathlineto{\pgfqpoint{0.845302in}{3.027989in}}%
\pgfpathlineto{\pgfqpoint{0.879888in}{3.115156in}}%
\pgfpathlineto{\pgfqpoint{0.917734in}{3.203327in}}%
\pgfpathlineto{\pgfqpoint{0.951861in}{3.277627in}}%
\pgfpathlineto{\pgfqpoint{0.988433in}{3.352725in}}%
\pgfpathlineto{\pgfqpoint{1.027539in}{3.428669in}}%
\pgfpathlineto{\pgfqpoint{1.069279in}{3.505506in}}%
\pgfpathlineto{\pgfqpoint{1.113756in}{3.583283in}}%
\pgfpathlineto{\pgfqpoint{1.161083in}{3.662051in}}%
\pgfpathlineto{\pgfqpoint{1.211376in}{3.741857in}}%
\pgfpathlineto{\pgfqpoint{1.264762in}{3.822752in}}%
\pgfpathlineto{\pgfqpoint{1.321374in}{3.904786in}}%
\pgfpathlineto{\pgfqpoint{1.381355in}{3.988011in}}%
\pgfpathlineto{\pgfqpoint{1.397642in}{4.010000in}}%
\pgfpathlineto{\pgfqpoint{1.397642in}{4.010000in}}%
\pgfusepath{stroke}%
\end{pgfscope}%
\begin{pgfscope}%
\pgfpathrectangle{\pgfqpoint{0.000000in}{0.000000in}}{\pgfqpoint{4.000000in}{4.000000in}} %
\pgfusepath{clip}%
\pgfsetbuttcap%
\pgfsetroundjoin%
\pgfsetlinewidth{0.200750pt}%
\definecolor{currentstroke}{rgb}{0.000000,0.000000,0.000000}%
\pgfsetstrokecolor{currentstroke}%
\pgfsetdash{}{0pt}%
\pgfpathmoveto{\pgfqpoint{1.241479in}{-0.010000in}}%
\pgfpathlineto{\pgfqpoint{1.185231in}{0.073047in}}%
\pgfpathlineto{\pgfqpoint{1.129117in}{0.159644in}}%
\pgfpathlineto{\pgfqpoint{1.076277in}{0.245090in}}%
\pgfpathlineto{\pgfqpoint{1.026578in}{0.329439in}}%
\pgfpathlineto{\pgfqpoint{0.979897in}{0.412744in}}%
\pgfpathlineto{\pgfqpoint{0.936117in}{0.495057in}}%
\pgfpathlineto{\pgfqpoint{0.895129in}{0.576429in}}%
\pgfpathlineto{\pgfqpoint{0.856829in}{0.656911in}}%
\pgfpathlineto{\pgfqpoint{0.821122in}{0.736554in}}%
\pgfpathlineto{\pgfqpoint{0.787919in}{0.815408in}}%
\pgfpathlineto{\pgfqpoint{0.757137in}{0.893521in}}%
\pgfpathlineto{\pgfqpoint{0.728698in}{0.970942in}}%
\pgfpathlineto{\pgfqpoint{0.702532in}{1.047720in}}%
\pgfpathlineto{\pgfqpoint{0.678573in}{1.123903in}}%
\pgfpathlineto{\pgfqpoint{0.656762in}{1.199538in}}%
\pgfpathlineto{\pgfqpoint{0.637043in}{1.274673in}}%
\pgfpathlineto{\pgfqpoint{0.619368in}{1.349355in}}%
\pgfpathlineto{\pgfqpoint{0.600793in}{1.438440in}}%
\pgfpathlineto{\pgfqpoint{0.585031in}{1.527020in}}%
\pgfpathlineto{\pgfqpoint{0.572024in}{1.615174in}}%
\pgfpathlineto{\pgfqpoint{0.561726in}{1.702982in}}%
\pgfpathlineto{\pgfqpoint{0.554099in}{1.790523in}}%
\pgfpathlineto{\pgfqpoint{0.549117in}{1.877874in}}%
\pgfpathlineto{\pgfqpoint{0.546761in}{1.965116in}}%
\pgfpathlineto{\pgfqpoint{0.546972in}{2.049420in}}%
\pgfpathlineto{\pgfqpoint{0.549765in}{2.136674in}}%
\pgfpathlineto{\pgfqpoint{0.555186in}{2.224052in}}%
\pgfpathlineto{\pgfqpoint{0.563256in}{2.311632in}}%
\pgfpathlineto{\pgfqpoint{0.574003in}{2.399492in}}%
\pgfpathlineto{\pgfqpoint{0.587465in}{2.487711in}}%
\pgfpathlineto{\pgfqpoint{0.600793in}{2.561560in}}%
\pgfpathlineto{\pgfqpoint{0.616074in}{2.635759in}}%
\pgfpathlineto{\pgfqpoint{0.633346in}{2.710355in}}%
\pgfpathlineto{\pgfqpoint{0.652652in}{2.785396in}}%
\pgfpathlineto{\pgfqpoint{0.674041in}{2.860928in}}%
\pgfpathlineto{\pgfqpoint{0.697566in}{2.936997in}}%
\pgfpathlineto{\pgfqpoint{0.723285in}{3.013652in}}%
\pgfpathlineto{\pgfqpoint{0.751264in}{3.090941in}}%
\pgfpathlineto{\pgfqpoint{0.781571in}{3.168912in}}%
\pgfpathlineto{\pgfqpoint{0.814284in}{3.247613in}}%
\pgfpathlineto{\pgfqpoint{0.849483in}{3.327094in}}%
\pgfpathlineto{\pgfqpoint{0.887257in}{3.407405in}}%
\pgfpathlineto{\pgfqpoint{0.927700in}{3.488595in}}%
\pgfpathlineto{\pgfqpoint{0.970913in}{3.570716in}}%
\pgfpathlineto{\pgfqpoint{1.017005in}{3.653818in}}%
\pgfpathlineto{\pgfqpoint{1.066090in}{3.737954in}}%
\pgfpathlineto{\pgfqpoint{1.118291in}{3.823177in}}%
\pgfpathlineto{\pgfqpoint{1.173739in}{3.909539in}}%
\pgfpathlineto{\pgfqpoint{1.232573in}{3.997094in}}%
\pgfpathlineto{\pgfqpoint{1.241479in}{4.010000in}}%
\pgfpathlineto{\pgfqpoint{1.241479in}{4.010000in}}%
\pgfusepath{stroke}%
\end{pgfscope}%
\begin{pgfscope}%
\pgfpathrectangle{\pgfqpoint{0.000000in}{0.000000in}}{\pgfqpoint{4.000000in}{4.000000in}} %
\pgfusepath{clip}%
\pgfsetbuttcap%
\pgfsetroundjoin%
\pgfsetlinewidth{0.200750pt}%
\definecolor{currentstroke}{rgb}{0.000000,0.000000,0.000000}%
\pgfsetstrokecolor{currentstroke}%
\pgfsetdash{}{0pt}%
\pgfpathmoveto{\pgfqpoint{1.092340in}{-0.010000in}}%
\pgfpathlineto{\pgfqpoint{1.044291in}{0.065842in}}%
\pgfpathlineto{\pgfqpoint{0.989065in}{0.156872in}}%
\pgfpathlineto{\pgfqpoint{0.937149in}{0.246751in}}%
\pgfpathlineto{\pgfqpoint{0.888414in}{0.335534in}}%
\pgfpathlineto{\pgfqpoint{0.842738in}{0.423276in}}%
\pgfpathlineto{\pgfqpoint{0.800006in}{0.510033in}}%
\pgfpathlineto{\pgfqpoint{0.760112in}{0.595859in}}%
\pgfpathlineto{\pgfqpoint{0.722956in}{0.680807in}}%
\pgfpathlineto{\pgfqpoint{0.688445in}{0.764930in}}%
\pgfpathlineto{\pgfqpoint{0.656492in}{0.848282in}}%
\pgfpathlineto{\pgfqpoint{0.627019in}{0.930913in}}%
\pgfpathlineto{\pgfqpoint{0.599950in}{1.012877in}}%
\pgfpathlineto{\pgfqpoint{0.575219in}{1.094223in}}%
\pgfpathlineto{\pgfqpoint{0.552764in}{1.175003in}}%
\pgfpathlineto{\pgfqpoint{0.532527in}{1.255268in}}%
\pgfpathlineto{\pgfqpoint{0.514460in}{1.335067in}}%
\pgfpathlineto{\pgfqpoint{0.498517in}{1.414451in}}%
\pgfpathlineto{\pgfqpoint{0.484657in}{1.493468in}}%
\pgfpathlineto{\pgfqpoint{0.472846in}{1.572169in}}%
\pgfpathlineto{\pgfqpoint{0.463055in}{1.650603in}}%
\pgfpathlineto{\pgfqpoint{0.455260in}{1.728818in}}%
\pgfpathlineto{\pgfqpoint{0.449439in}{1.806864in}}%
\pgfpathlineto{\pgfqpoint{0.445580in}{1.884789in}}%
\pgfpathlineto{\pgfqpoint{0.443672in}{1.962642in}}%
\pgfpathlineto{\pgfqpoint{0.443898in}{2.052925in}}%
\pgfpathlineto{\pgfqpoint{0.446196in}{2.130789in}}%
\pgfpathlineto{\pgfqpoint{0.450446in}{2.208734in}}%
\pgfpathlineto{\pgfqpoint{0.456660in}{2.286810in}}%
\pgfpathlineto{\pgfqpoint{0.464853in}{2.365065in}}%
\pgfpathlineto{\pgfqpoint{0.475046in}{2.443548in}}%
\pgfpathlineto{\pgfqpoint{0.487264in}{2.522308in}}%
\pgfpathlineto{\pgfqpoint{0.501538in}{2.601395in}}%
\pgfpathlineto{\pgfqpoint{0.517902in}{2.680858in}}%
\pgfpathlineto{\pgfqpoint{0.536400in}{2.760746in}}%
\pgfpathlineto{\pgfqpoint{0.557075in}{2.841110in}}%
\pgfpathlineto{\pgfqpoint{0.579981in}{2.921999in}}%
\pgfpathlineto{\pgfqpoint{0.605175in}{3.003465in}}%
\pgfpathlineto{\pgfqpoint{0.632719in}{3.085558in}}%
\pgfpathlineto{\pgfqpoint{0.662682in}{3.168329in}}%
\pgfpathlineto{\pgfqpoint{0.695139in}{3.251831in}}%
\pgfpathlineto{\pgfqpoint{0.730172in}{3.336115in}}%
\pgfpathlineto{\pgfqpoint{0.767869in}{3.421235in}}%
\pgfpathlineto{\pgfqpoint{0.808322in}{3.507242in}}%
\pgfpathlineto{\pgfqpoint{0.851634in}{3.594192in}}%
\pgfpathlineto{\pgfqpoint{0.897912in}{3.682138in}}%
\pgfpathlineto{\pgfqpoint{0.947274in}{3.771135in}}%
\pgfpathlineto{\pgfqpoint{0.999841in}{3.861240in}}%
\pgfpathlineto{\pgfqpoint{1.055745in}{3.952508in}}%
\pgfpathlineto{\pgfqpoint{1.092340in}{4.010000in}}%
\pgfpathlineto{\pgfqpoint{1.092340in}{4.010000in}}%
\pgfusepath{stroke}%
\end{pgfscope}%
\begin{pgfscope}%
\pgfpathrectangle{\pgfqpoint{0.000000in}{0.000000in}}{\pgfqpoint{4.000000in}{4.000000in}} %
\pgfusepath{clip}%
\pgfsetbuttcap%
\pgfsetroundjoin%
\pgfsetlinewidth{0.200750pt}%
\definecolor{currentstroke}{rgb}{0.000000,0.000000,0.000000}%
\pgfsetstrokecolor{currentstroke}%
\pgfsetdash{}{0pt}%
\pgfpathmoveto{\pgfqpoint{0.948932in}{-0.010000in}}%
\pgfpathlineto{\pgfqpoint{0.899545in}{0.073263in}}%
\pgfpathlineto{\pgfqpoint{0.845563in}{0.168621in}}%
\pgfpathlineto{\pgfqpoint{0.794919in}{0.262834in}}%
\pgfpathlineto{\pgfqpoint{0.747487in}{0.355961in}}%
\pgfpathlineto{\pgfqpoint{0.703149in}{0.448060in}}%
\pgfpathlineto{\pgfqpoint{0.661792in}{0.539190in}}%
\pgfpathlineto{\pgfqpoint{0.623314in}{0.629406in}}%
\pgfpathlineto{\pgfqpoint{0.587619in}{0.718766in}}%
\pgfpathlineto{\pgfqpoint{0.554617in}{0.807325in}}%
\pgfpathlineto{\pgfqpoint{0.524226in}{0.895138in}}%
\pgfpathlineto{\pgfqpoint{0.496370in}{0.982261in}}%
\pgfpathlineto{\pgfqpoint{0.470979in}{1.068748in}}%
\pgfpathlineto{\pgfqpoint{0.447990in}{1.154652in}}%
\pgfpathlineto{\pgfqpoint{0.427344in}{1.240029in}}%
\pgfpathlineto{\pgfqpoint{0.408992in}{1.324930in}}%
\pgfpathlineto{\pgfqpoint{0.392885in}{1.409410in}}%
\pgfpathlineto{\pgfqpoint{0.378986in}{1.493520in}}%
\pgfpathlineto{\pgfqpoint{0.367258in}{1.577313in}}%
\pgfpathlineto{\pgfqpoint{0.357672in}{1.660843in}}%
\pgfpathlineto{\pgfqpoint{0.350204in}{1.744160in}}%
\pgfpathlineto{\pgfqpoint{0.344837in}{1.827318in}}%
\pgfpathlineto{\pgfqpoint{0.341555in}{1.910368in}}%
\pgfpathlineto{\pgfqpoint{0.340345in}{2.000000in}}%
\pgfpathlineto{\pgfqpoint{0.340345in}{2.000000in}}%
\pgfpathlineto{\pgfqpoint{0.341148in}{2.073031in}}%
\pgfpathlineto{\pgfqpoint{0.344014in}{2.156065in}}%
\pgfpathlineto{\pgfqpoint{0.348963in}{2.239197in}}%
\pgfpathlineto{\pgfqpoint{0.356010in}{2.322478in}}%
\pgfpathlineto{\pgfqpoint{0.365170in}{2.405961in}}%
\pgfpathlineto{\pgfqpoint{0.376467in}{2.489698in}}%
\pgfpathlineto{\pgfqpoint{0.389930in}{2.573741in}}%
\pgfpathlineto{\pgfqpoint{0.405592in}{2.658142in}}%
\pgfpathlineto{\pgfqpoint{0.423492in}{2.742955in}}%
\pgfpathlineto{\pgfqpoint{0.443675in}{2.828232in}}%
\pgfpathlineto{\pgfqpoint{0.466191in}{2.914026in}}%
\pgfpathlineto{\pgfqpoint{0.491097in}{3.000392in}}%
\pgfpathlineto{\pgfqpoint{0.518455in}{3.087384in}}%
\pgfpathlineto{\pgfqpoint{0.548333in}{3.175055in}}%
\pgfpathlineto{\pgfqpoint{0.580806in}{3.263460in}}%
\pgfpathlineto{\pgfqpoint{0.615956in}{3.352655in}}%
\pgfpathlineto{\pgfqpoint{0.653870in}{3.442696in}}%
\pgfpathlineto{\pgfqpoint{0.694642in}{3.533638in}}%
\pgfpathlineto{\pgfqpoint{0.738376in}{3.625539in}}%
\pgfpathlineto{\pgfqpoint{0.785180in}{3.718456in}}%
\pgfpathlineto{\pgfqpoint{0.835171in}{3.812447in}}%
\pgfpathlineto{\pgfqpoint{0.888475in}{3.907571in}}%
\pgfpathlineto{\pgfqpoint{0.945224in}{4.003887in}}%
\pgfpathlineto{\pgfqpoint{0.948932in}{4.010000in}}%
\pgfpathlineto{\pgfqpoint{0.948932in}{4.010000in}}%
\pgfusepath{stroke}%
\end{pgfscope}%
\begin{pgfscope}%
\pgfpathrectangle{\pgfqpoint{0.000000in}{0.000000in}}{\pgfqpoint{4.000000in}{4.000000in}} %
\pgfusepath{clip}%
\pgfsetbuttcap%
\pgfsetroundjoin%
\pgfsetlinewidth{0.200750pt}%
\definecolor{currentstroke}{rgb}{0.000000,0.000000,0.000000}%
\pgfsetstrokecolor{currentstroke}%
\pgfsetdash{}{0pt}%
\pgfpathmoveto{\pgfqpoint{0.810231in}{-0.010000in}}%
\pgfpathlineto{\pgfqpoint{0.762808in}{0.074958in}}%
\pgfpathlineto{\pgfqpoint{0.709711in}{0.174788in}}%
\pgfpathlineto{\pgfqpoint{0.660000in}{0.273477in}}%
\pgfpathlineto{\pgfqpoint{0.613549in}{0.371087in}}%
\pgfpathlineto{\pgfqpoint{0.570243in}{0.467679in}}%
\pgfpathlineto{\pgfqpoint{0.529974in}{0.563313in}}%
\pgfpathlineto{\pgfqpoint{0.492641in}{0.658049in}}%
\pgfpathlineto{\pgfqpoint{0.458150in}{0.751947in}}%
\pgfpathlineto{\pgfqpoint{0.426416in}{0.845064in}}%
\pgfpathlineto{\pgfqpoint{0.397359in}{0.937460in}}%
\pgfpathlineto{\pgfqpoint{0.370905in}{1.029191in}}%
\pgfpathlineto{\pgfqpoint{0.346990in}{1.120316in}}%
\pgfpathlineto{\pgfqpoint{0.325554in}{1.210890in}}%
\pgfpathlineto{\pgfqpoint{0.306542in}{1.300972in}}%
\pgfpathlineto{\pgfqpoint{0.289907in}{1.390617in}}%
\pgfpathlineto{\pgfqpoint{0.275608in}{1.479880in}}%
\pgfpathlineto{\pgfqpoint{0.263609in}{1.568819in}}%
\pgfpathlineto{\pgfqpoint{0.253879in}{1.657488in}}%
\pgfpathlineto{\pgfqpoint{0.246395in}{1.745943in}}%
\pgfpathlineto{\pgfqpoint{0.241138in}{1.834240in}}%
\pgfpathlineto{\pgfqpoint{0.238095in}{1.922432in}}%
\pgfpathlineto{\pgfqpoint{0.237248in}{2.007051in}}%
\pgfpathlineto{\pgfqpoint{0.238527in}{2.095201in}}%
\pgfpathlineto{\pgfqpoint{0.242012in}{2.183410in}}%
\pgfpathlineto{\pgfqpoint{0.247713in}{2.271733in}}%
\pgfpathlineto{\pgfqpoint{0.255645in}{2.360227in}}%
\pgfpathlineto{\pgfqpoint{0.265826in}{2.448945in}}%
\pgfpathlineto{\pgfqpoint{0.278283in}{2.537944in}}%
\pgfpathlineto{\pgfqpoint{0.293046in}{2.627280in}}%
\pgfpathlineto{\pgfqpoint{0.310153in}{2.717008in}}%
\pgfpathlineto{\pgfqpoint{0.329646in}{2.807183in}}%
\pgfpathlineto{\pgfqpoint{0.351573in}{2.897863in}}%
\pgfpathlineto{\pgfqpoint{0.375991in}{2.989105in}}%
\pgfpathlineto{\pgfqpoint{0.402959in}{3.080964in}}%
\pgfpathlineto{\pgfqpoint{0.432546in}{3.173500in}}%
\pgfpathlineto{\pgfqpoint{0.464825in}{3.266768in}}%
\pgfpathlineto{\pgfqpoint{0.499877in}{3.360829in}}%
\pgfpathlineto{\pgfqpoint{0.537790in}{3.455740in}}%
\pgfpathlineto{\pgfqpoint{0.578658in}{3.551561in}}%
\pgfpathlineto{\pgfqpoint{0.622584in}{3.648352in}}%
\pgfpathlineto{\pgfqpoint{0.669677in}{3.746173in}}%
\pgfpathlineto{\pgfqpoint{0.720056in}{3.845085in}}%
\pgfpathlineto{\pgfqpoint{0.773845in}{3.945151in}}%
\pgfpathlineto{\pgfqpoint{0.810231in}{4.010000in}}%
\pgfpathlineto{\pgfqpoint{0.810231in}{4.010000in}}%
\pgfusepath{stroke}%
\end{pgfscope}%
\begin{pgfscope}%
\pgfpathrectangle{\pgfqpoint{0.000000in}{0.000000in}}{\pgfqpoint{4.000000in}{4.000000in}} %
\pgfusepath{clip}%
\pgfsetbuttcap%
\pgfsetroundjoin%
\pgfsetlinewidth{0.200750pt}%
\definecolor{currentstroke}{rgb}{0.000000,0.000000,0.000000}%
\pgfsetstrokecolor{currentstroke}%
\pgfsetdash{}{0pt}%
\pgfpathmoveto{\pgfqpoint{0.675469in}{-0.010000in}}%
\pgfpathlineto{\pgfqpoint{0.623436in}{0.089018in}}%
\pgfpathlineto{\pgfqpoint{0.571518in}{0.193246in}}%
\pgfpathlineto{\pgfqpoint{0.523025in}{0.296345in}}%
\pgfpathlineto{\pgfqpoint{0.477839in}{0.398378in}}%
\pgfpathlineto{\pgfqpoint{0.435844in}{0.499411in}}%
\pgfpathlineto{\pgfqpoint{0.396937in}{0.599506in}}%
\pgfpathlineto{\pgfqpoint{0.361019in}{0.698725in}}%
\pgfpathlineto{\pgfqpoint{0.328002in}{0.797131in}}%
\pgfpathlineto{\pgfqpoint{0.297802in}{0.894786in}}%
\pgfpathlineto{\pgfqpoint{0.270344in}{0.991749in}}%
\pgfpathlineto{\pgfqpoint{0.245560in}{1.088082in}}%
\pgfpathlineto{\pgfqpoint{0.223387in}{1.183846in}}%
\pgfpathlineto{\pgfqpoint{0.203770in}{1.279099in}}%
\pgfpathlineto{\pgfqpoint{0.186661in}{1.373901in}}%
\pgfpathlineto{\pgfqpoint{0.172015in}{1.468313in}}%
\pgfpathlineto{\pgfqpoint{0.159796in}{1.562391in}}%
\pgfpathlineto{\pgfqpoint{0.149975in}{1.656197in}}%
\pgfpathlineto{\pgfqpoint{0.142526in}{1.749787in}}%
\pgfpathlineto{\pgfqpoint{0.137431in}{1.843222in}}%
\pgfpathlineto{\pgfqpoint{0.134677in}{1.936558in}}%
\pgfpathlineto{\pgfqpoint{0.134229in}{2.026122in}}%
\pgfpathlineto{\pgfqpoint{0.136049in}{2.119436in}}%
\pgfpathlineto{\pgfqpoint{0.140207in}{2.212823in}}%
\pgfpathlineto{\pgfqpoint{0.146712in}{2.306344in}}%
\pgfpathlineto{\pgfqpoint{0.155582in}{2.400057in}}%
\pgfpathlineto{\pgfqpoint{0.166838in}{2.494019in}}%
\pgfpathlineto{\pgfqpoint{0.180509in}{2.588291in}}%
\pgfpathlineto{\pgfqpoint{0.196628in}{2.682930in}}%
\pgfpathlineto{\pgfqpoint{0.215237in}{2.777995in}}%
\pgfpathlineto{\pgfqpoint{0.236381in}{2.873547in}}%
\pgfpathlineto{\pgfqpoint{0.260114in}{2.969645in}}%
\pgfpathlineto{\pgfqpoint{0.286494in}{3.066350in}}%
\pgfpathlineto{\pgfqpoint{0.315588in}{3.163720in}}%
\pgfpathlineto{\pgfqpoint{0.347469in}{3.261818in}}%
\pgfpathlineto{\pgfqpoint{0.382216in}{3.360705in}}%
\pgfpathlineto{\pgfqpoint{0.419916in}{3.460442in}}%
\pgfpathlineto{\pgfqpoint{0.460664in}{3.561092in}}%
\pgfpathlineto{\pgfqpoint{0.504561in}{3.662718in}}%
\pgfpathlineto{\pgfqpoint{0.551717in}{3.765383in}}%
\pgfpathlineto{\pgfqpoint{0.602249in}{3.869151in}}%
\pgfpathlineto{\pgfqpoint{0.656286in}{3.974088in}}%
\pgfpathlineto{\pgfqpoint{0.675469in}{4.010000in}}%
\pgfpathlineto{\pgfqpoint{0.675469in}{4.010000in}}%
\pgfusepath{stroke}%
\end{pgfscope}%
\begin{pgfscope}%
\pgfpathrectangle{\pgfqpoint{0.000000in}{0.000000in}}{\pgfqpoint{4.000000in}{4.000000in}} %
\pgfusepath{clip}%
\pgfsetbuttcap%
\pgfsetroundjoin%
\pgfsetlinewidth{0.200750pt}%
\definecolor{currentstroke}{rgb}{0.000000,0.000000,0.000000}%
\pgfsetstrokecolor{currentstroke}%
\pgfsetdash{}{0pt}%
\pgfpathmoveto{\pgfqpoint{0.544020in}{-0.010000in}}%
\pgfpathlineto{\pgfqpoint{0.492583in}{0.093409in}}%
\pgfpathlineto{\pgfqpoint{0.441411in}{0.202204in}}%
\pgfpathlineto{\pgfqpoint{0.393727in}{0.309876in}}%
\pgfpathlineto{\pgfqpoint{0.349412in}{0.416492in}}%
\pgfpathlineto{\pgfqpoint{0.308355in}{0.522118in}}%
\pgfpathlineto{\pgfqpoint{0.270453in}{0.626820in}}%
\pgfpathlineto{\pgfqpoint{0.235611in}{0.730663in}}%
\pgfpathlineto{\pgfqpoint{0.203742in}{0.833714in}}%
\pgfpathlineto{\pgfqpoint{0.174767in}{0.936035in}}%
\pgfpathlineto{\pgfqpoint{0.148614in}{1.037692in}}%
\pgfpathlineto{\pgfqpoint{0.125216in}{1.138747in}}%
\pgfpathlineto{\pgfqpoint{0.104515in}{1.239263in}}%
\pgfpathlineto{\pgfqpoint{0.086459in}{1.339304in}}%
\pgfpathlineto{\pgfqpoint{0.071004in}{1.438933in}}%
\pgfpathlineto{\pgfqpoint{0.058111in}{1.538210in}}%
\pgfpathlineto{\pgfqpoint{0.047747in}{1.637199in}}%
\pgfpathlineto{\pgfqpoint{0.039886in}{1.735961in}}%
\pgfpathlineto{\pgfqpoint{0.034510in}{1.834558in}}%
\pgfpathlineto{\pgfqpoint{0.031604in}{1.933052in}}%
\pgfpathlineto{\pgfqpoint{0.031131in}{2.027566in}}%
\pgfpathlineto{\pgfqpoint{0.033051in}{2.126035in}}%
\pgfpathlineto{\pgfqpoint{0.037439in}{2.224584in}}%
\pgfpathlineto{\pgfqpoint{0.044304in}{2.323272in}}%
\pgfpathlineto{\pgfqpoint{0.053663in}{2.422163in}}%
\pgfpathlineto{\pgfqpoint{0.065541in}{2.521318in}}%
\pgfpathlineto{\pgfqpoint{0.079968in}{2.620798in}}%
\pgfpathlineto{\pgfqpoint{0.096978in}{2.720667in}}%
\pgfpathlineto{\pgfqpoint{0.116615in}{2.820986in}}%
\pgfpathlineto{\pgfqpoint{0.138927in}{2.921818in}}%
\pgfpathlineto{\pgfqpoint{0.163971in}{3.023226in}}%
\pgfpathlineto{\pgfqpoint{0.191809in}{3.125274in}}%
\pgfpathlineto{\pgfqpoint{0.222511in}{3.228025in}}%
\pgfpathlineto{\pgfqpoint{0.256154in}{3.331544in}}%
\pgfpathlineto{\pgfqpoint{0.292821in}{3.435894in}}%
\pgfpathlineto{\pgfqpoint{0.332604in}{3.541143in}}%
\pgfpathlineto{\pgfqpoint{0.375603in}{3.647355in}}%
\pgfpathlineto{\pgfqpoint{0.421926in}{3.754596in}}%
\pgfpathlineto{\pgfqpoint{0.471688in}{3.862934in}}%
\pgfpathlineto{\pgfqpoint{0.525013in}{3.972436in}}%
\pgfpathlineto{\pgfqpoint{0.544020in}{4.010000in}}%
\pgfpathlineto{\pgfqpoint{0.544020in}{4.010000in}}%
\pgfusepath{stroke}%
\end{pgfscope}%
\begin{pgfscope}%
\pgfpathrectangle{\pgfqpoint{0.000000in}{0.000000in}}{\pgfqpoint{4.000000in}{4.000000in}} %
\pgfusepath{clip}%
\pgfsetbuttcap%
\pgfsetroundjoin%
\pgfsetlinewidth{0.200750pt}%
\definecolor{currentstroke}{rgb}{0.000000,0.000000,0.000000}%
\pgfsetstrokecolor{currentstroke}%
\pgfsetdash{}{0pt}%
\pgfpathmoveto{\pgfqpoint{0.415387in}{-0.010000in}}%
\pgfpathlineto{\pgfqpoint{0.380889in}{0.062413in}}%
\pgfpathlineto{\pgfqpoint{0.339291in}{0.153526in}}%
\pgfpathlineto{\pgfqpoint{0.300009in}{0.243900in}}%
\pgfpathlineto{\pgfqpoint{0.262980in}{0.333573in}}%
\pgfpathlineto{\pgfqpoint{0.219773in}{0.444729in}}%
\pgfpathlineto{\pgfqpoint{0.179886in}{0.554914in}}%
\pgfpathlineto{\pgfqpoint{0.143220in}{0.664196in}}%
\pgfpathlineto{\pgfqpoint{0.109683in}{0.772642in}}%
\pgfpathlineto{\pgfqpoint{0.079190in}{0.880322in}}%
\pgfpathlineto{\pgfqpoint{0.051667in}{0.987301in}}%
\pgfpathlineto{\pgfqpoint{0.027044in}{1.093648in}}%
\pgfpathlineto{\pgfqpoint{0.005259in}{1.199428in}}%
\pgfpathlineto{\pgfqpoint{-0.010000in}{1.282765in}}%
\pgfpathmoveto{\pgfqpoint{-0.010000in}{2.717235in}}%
\pgfpathlineto{\pgfqpoint{0.009392in}{2.821686in}}%
\pgfpathlineto{\pgfqpoint{0.031740in}{2.927574in}}%
\pgfpathlineto{\pgfqpoint{0.056938in}{3.034042in}}%
\pgfpathlineto{\pgfqpoint{0.085049in}{3.141156in}}%
\pgfpathlineto{\pgfqpoint{0.116144in}{3.248984in}}%
\pgfpathlineto{\pgfqpoint{0.150300in}{3.357592in}}%
\pgfpathlineto{\pgfqpoint{0.187603in}{3.467048in}}%
\pgfpathlineto{\pgfqpoint{0.228146in}{3.577422in}}%
\pgfpathlineto{\pgfqpoint{0.262980in}{3.666427in}}%
\pgfpathlineto{\pgfqpoint{0.300009in}{3.756100in}}%
\pgfpathlineto{\pgfqpoint{0.339291in}{3.846474in}}%
\pgfpathlineto{\pgfqpoint{0.380889in}{3.937587in}}%
\pgfpathlineto{\pgfqpoint{0.415387in}{4.010000in}}%
\pgfpathlineto{\pgfqpoint{0.415387in}{4.010000in}}%
\pgfusepath{stroke}%
\end{pgfscope}%
\begin{pgfscope}%
\pgfpathrectangle{\pgfqpoint{0.000000in}{0.000000in}}{\pgfqpoint{4.000000in}{4.000000in}} %
\pgfusepath{clip}%
\pgfsetbuttcap%
\pgfsetroundjoin%
\pgfsetlinewidth{0.200750pt}%
\definecolor{currentstroke}{rgb}{0.000000,0.000000,0.000000}%
\pgfsetstrokecolor{currentstroke}%
\pgfsetdash{}{0pt}%
\pgfpathmoveto{\pgfqpoint{0.289170in}{-0.010000in}}%
\pgfpathlineto{\pgfqpoint{0.246122in}{0.085437in}}%
\pgfpathlineto{\pgfqpoint{0.205483in}{0.180120in}}%
\pgfpathlineto{\pgfqpoint{0.167193in}{0.274076in}}%
\pgfpathlineto{\pgfqpoint{0.131191in}{0.367341in}}%
\pgfpathlineto{\pgfqpoint{0.097420in}{0.459953in}}%
\pgfpathlineto{\pgfqpoint{0.065826in}{0.551949in}}%
\pgfpathlineto{\pgfqpoint{0.036357in}{0.643366in}}%
\pgfpathlineto{\pgfqpoint{0.008968in}{0.734240in}}%
\pgfpathlineto{\pgfqpoint{-0.010000in}{0.801211in}}%
\pgfpathmoveto{\pgfqpoint{-0.010000in}{3.198789in}}%
\pgfpathlineto{\pgfqpoint{0.015623in}{3.288430in}}%
\pgfpathlineto{\pgfqpoint{0.043528in}{3.379436in}}%
\pgfpathlineto{\pgfqpoint{0.073523in}{3.470994in}}%
\pgfpathlineto{\pgfqpoint{0.105657in}{3.563141in}}%
\pgfpathlineto{\pgfqpoint{0.139980in}{3.655913in}}%
\pgfpathlineto{\pgfqpoint{0.176548in}{3.749347in}}%
\pgfpathlineto{\pgfqpoint{0.215420in}{3.843481in}}%
\pgfpathlineto{\pgfqpoint{0.256656in}{3.938352in}}%
\pgfpathlineto{\pgfqpoint{0.289170in}{4.010000in}}%
\pgfpathlineto{\pgfqpoint{0.289170in}{4.010000in}}%
\pgfusepath{stroke}%
\end{pgfscope}%
\begin{pgfscope}%
\pgfpathrectangle{\pgfqpoint{0.000000in}{0.000000in}}{\pgfqpoint{4.000000in}{4.000000in}} %
\pgfusepath{clip}%
\pgfsetbuttcap%
\pgfsetroundjoin%
\pgfsetlinewidth{0.200750pt}%
\definecolor{currentstroke}{rgb}{0.000000,0.000000,0.000000}%
\pgfsetstrokecolor{currentstroke}%
\pgfsetdash{}{0pt}%
\pgfpathmoveto{\pgfqpoint{0.165063in}{-0.010000in}}%
\pgfpathlineto{\pgfqpoint{0.130830in}{0.069138in}}%
\pgfpathlineto{\pgfqpoint{0.090117in}{0.167734in}}%
\pgfpathlineto{\pgfqpoint{0.051815in}{0.265597in}}%
\pgfpathlineto{\pgfqpoint{0.015865in}{0.362766in}}%
\pgfpathlineto{\pgfqpoint{-0.010000in}{0.436415in}}%
\pgfpathmoveto{\pgfqpoint{-0.010000in}{3.563585in}}%
\pgfpathlineto{\pgfqpoint{0.015865in}{3.637234in}}%
\pgfpathlineto{\pgfqpoint{0.051815in}{3.734403in}}%
\pgfpathlineto{\pgfqpoint{0.090117in}{3.832266in}}%
\pgfpathlineto{\pgfqpoint{0.130830in}{3.930862in}}%
\pgfpathlineto{\pgfqpoint{0.165063in}{4.010000in}}%
\pgfpathlineto{\pgfqpoint{0.165063in}{4.010000in}}%
\pgfusepath{stroke}%
\end{pgfscope}%
\begin{pgfscope}%
\pgfpathrectangle{\pgfqpoint{0.000000in}{0.000000in}}{\pgfqpoint{4.000000in}{4.000000in}} %
\pgfusepath{clip}%
\pgfsetbuttcap%
\pgfsetroundjoin%
\pgfsetlinewidth{0.200750pt}%
\definecolor{currentstroke}{rgb}{0.000000,0.000000,0.000000}%
\pgfsetstrokecolor{currentstroke}%
\pgfsetdash{}{0pt}%
\pgfpathmoveto{\pgfqpoint{0.042770in}{-0.010000in}}%
\pgfpathlineto{\pgfqpoint{0.003685in}{0.084815in}}%
\pgfpathlineto{\pgfqpoint{-0.010000in}{0.119194in}}%
\pgfpathmoveto{\pgfqpoint{-0.010000in}{3.880806in}}%
\pgfpathlineto{\pgfqpoint{0.024644in}{3.966616in}}%
\pgfpathlineto{\pgfqpoint{0.042770in}{4.010000in}}%
\pgfpathlineto{\pgfqpoint{0.042770in}{4.010000in}}%
\pgfusepath{stroke}%
\end{pgfscope}%
\begin{pgfscope}%
\pgfpathrectangle{\pgfqpoint{0.000000in}{0.000000in}}{\pgfqpoint{4.000000in}{4.000000in}} %
\pgfusepath{clip}%
\pgfsetbuttcap%
\pgfsetroundjoin%
\pgfsetlinewidth{0.200750pt}%
\definecolor{currentstroke}{rgb}{0.000000,0.000000,0.000000}%
\pgfsetstrokecolor{currentstroke}%
\pgfsetdash{}{0pt}%
\pgfpathmoveto{\pgfqpoint{0.033339in}{-0.268497in}}%
\pgfusepath{stroke}%
\end{pgfscope}%
\begin{pgfscope}%
\pgfpathrectangle{\pgfqpoint{0.000000in}{0.000000in}}{\pgfqpoint{4.000000in}{4.000000in}} %
\pgfusepath{clip}%
\pgfsetbuttcap%
\pgfsetroundjoin%
\pgfsetlinewidth{0.200750pt}%
\definecolor{currentstroke}{rgb}{0.000000,0.000000,0.000000}%
\pgfsetstrokecolor{currentstroke}%
\pgfsetdash{}{0pt}%
\pgfpathmoveto{\pgfqpoint{-0.180308in}{-0.053160in}}%
\pgfusepath{stroke}%
\end{pgfscope}%
\begin{pgfscope}%
\pgfpathrectangle{\pgfqpoint{0.000000in}{0.000000in}}{\pgfqpoint{4.000000in}{4.000000in}} %
\pgfusepath{clip}%
\pgfsetbuttcap%
\pgfsetroundjoin%
\pgfsetlinewidth{0.200750pt}%
\definecolor{currentstroke}{rgb}{0.000000,0.000000,0.000000}%
\pgfsetstrokecolor{currentstroke}%
\pgfsetdash{}{0pt}%
\pgfpathmoveto{\pgfqpoint{-0.383053in}{0.180379in}}%
\pgfusepath{stroke}%
\end{pgfscope}%
\begin{pgfscope}%
\pgfpathrectangle{\pgfqpoint{0.000000in}{0.000000in}}{\pgfqpoint{4.000000in}{4.000000in}} %
\pgfusepath{clip}%
\pgfsetbuttcap%
\pgfsetroundjoin%
\pgfsetlinewidth{0.200750pt}%
\definecolor{currentstroke}{rgb}{0.000000,0.000000,0.000000}%
\pgfsetstrokecolor{currentstroke}%
\pgfsetdash{}{0pt}%
\pgfpathmoveto{\pgfqpoint{-0.589848in}{0.490325in}}%
\pgfusepath{stroke}%
\end{pgfscope}%
\begin{pgfscope}%
\pgfpathrectangle{\pgfqpoint{0.000000in}{0.000000in}}{\pgfqpoint{4.000000in}{4.000000in}} %
\pgfusepath{clip}%
\pgfsetbuttcap%
\pgfsetroundjoin%
\pgfsetlinewidth{0.200750pt}%
\definecolor{currentstroke}{rgb}{0.000000,0.000000,0.000000}%
\pgfsetstrokecolor{currentstroke}%
\pgfsetdash{}{0pt}%
\pgfpathmoveto{\pgfqpoint{-0.794409in}{0.910235in}}%
\pgfusepath{stroke}%
\end{pgfscope}%
\begin{pgfscope}%
\pgfpathrectangle{\pgfqpoint{0.000000in}{0.000000in}}{\pgfqpoint{4.000000in}{4.000000in}} %
\pgfusepath{clip}%
\pgfsetbuttcap%
\pgfsetroundjoin%
\pgfsetlinewidth{0.200750pt}%
\definecolor{currentstroke}{rgb}{0.000000,0.000000,0.000000}%
\pgfsetstrokecolor{currentstroke}%
\pgfsetdash{}{0pt}%
\pgfpathmoveto{\pgfqpoint{-1.000000in}{2.000000in}}%
\pgfusepath{stroke}%
\end{pgfscope}%
\begin{pgfscope}%
\pgfsetbuttcap%
\pgfsetroundjoin%
\pgfsetlinewidth{1.003750pt}%
\definecolor{currentstroke}{rgb}{0.000000,0.000000,0.000000}%
\pgfsetstrokecolor{currentstroke}%
\pgfsetdash{}{0pt}%
\pgfpathmoveto{\pgfqpoint{0.000000in}{4.000000in}}%
\pgfpathlineto{\pgfqpoint{4.000000in}{4.000000in}}%
\pgfusepath{stroke}%
\end{pgfscope}%
\begin{pgfscope}%
\pgfsetbuttcap%
\pgfsetroundjoin%
\pgfsetlinewidth{1.003750pt}%
\definecolor{currentstroke}{rgb}{0.000000,0.000000,0.000000}%
\pgfsetstrokecolor{currentstroke}%
\pgfsetdash{}{0pt}%
\pgfpathmoveto{\pgfqpoint{4.000000in}{0.000000in}}%
\pgfpathlineto{\pgfqpoint{4.000000in}{4.000000in}}%
\pgfusepath{stroke}%
\end{pgfscope}%
\begin{pgfscope}%
\pgfsetbuttcap%
\pgfsetroundjoin%
\pgfsetlinewidth{1.003750pt}%
\definecolor{currentstroke}{rgb}{0.000000,0.000000,0.000000}%
\pgfsetstrokecolor{currentstroke}%
\pgfsetdash{}{0pt}%
\pgfpathmoveto{\pgfqpoint{0.000000in}{0.000000in}}%
\pgfpathlineto{\pgfqpoint{4.000000in}{0.000000in}}%
\pgfusepath{stroke}%
\end{pgfscope}%
\begin{pgfscope}%
\pgfsetbuttcap%
\pgfsetroundjoin%
\pgfsetlinewidth{1.003750pt}%
\definecolor{currentstroke}{rgb}{0.000000,0.000000,0.000000}%
\pgfsetstrokecolor{currentstroke}%
\pgfsetdash{}{0pt}%
\pgfpathmoveto{\pgfqpoint{0.000000in}{0.000000in}}%
\pgfpathlineto{\pgfqpoint{0.000000in}{4.000000in}}%
\pgfusepath{stroke}%
\end{pgfscope}%
\end{tikzpicture}%
